\relax 
\@writefile{toc}{\contentsline {section}{\numberline {1} Dirac field quantization }{1}}
\@writefile{toc}{\contentsline {subsection}{\numberline {1.1}Show that commutation relation eq(1.5a) requires eq(1.6)}{2}}
\@writefile{toc}{\contentsline {subsection}{\numberline {1.2}Derive expression for Dirac field Hamiltonian density($\mathcal  {H}$)}{3}}
