PWD /Users/jab/Documents/homework/QFT/HW8
INPUT /usr/local/texlive/2017/texmf.cnf
INPUT /usr/local/texlive/2017/texmf-dist/web2c/texmf.cnf
INPUT /usr/local/texlive/2017/texmf-var/web2c/xetex/xelatex.fmt
INPUT hw8.tex
OUTPUT hw8.log
INPUT /usr/local/texlive/2017/texmf-dist/tex/latex/base/article.cls
INPUT /usr/local/texlive/2017/texmf-dist/tex/latex/base/article.cls
INPUT /usr/local/texlive/2017/texmf-dist/tex/latex/base/size12.clo
INPUT /usr/local/texlive/2017/texmf-dist/tex/latex/base/size12.clo
INPUT /usr/local/texlive/2017/texmf-dist/tex/latex/geometry/geometry.sty
INPUT /usr/local/texlive/2017/texmf-dist/tex/latex/geometry/geometry.sty
INPUT /usr/local/texlive/2017/texmf-dist/tex/latex/graphics/keyval.sty
INPUT /usr/local/texlive/2017/texmf-dist/tex/latex/graphics/keyval.sty
INPUT /usr/local/texlive/2017/texmf-dist/tex/generic/oberdiek/ifpdf.sty
INPUT /usr/local/texlive/2017/texmf-dist/tex/generic/oberdiek/ifpdf.sty
INPUT /usr/local/texlive/2017/texmf-dist/tex/generic/oberdiek/ifvtex.sty
INPUT /usr/local/texlive/2017/texmf-dist/tex/generic/oberdiek/ifvtex.sty
INPUT /usr/local/texlive/2017/texmf-dist/tex/generic/ifxetex/ifxetex.sty
INPUT /usr/local/texlive/2017/texmf-dist/tex/generic/ifxetex/ifxetex.sty
INPUT /usr/local/texlive/2017/texmf-dist/tex/latex/amsmath/amsmath.sty
INPUT /usr/local/texlive/2017/texmf-dist/tex/latex/amsmath/amsmath.sty
INPUT /usr/local/texlive/2017/texmf-dist/tex/latex/amsmath/amstext.sty
INPUT /usr/local/texlive/2017/texmf-dist/tex/latex/amsmath/amstext.sty
INPUT /usr/local/texlive/2017/texmf-dist/tex/latex/amsmath/amsgen.sty
INPUT /usr/local/texlive/2017/texmf-dist/tex/latex/amsmath/amsgen.sty
INPUT /usr/local/texlive/2017/texmf-dist/tex/latex/amsmath/amsbsy.sty
INPUT /usr/local/texlive/2017/texmf-dist/tex/latex/amsmath/amsbsy.sty
INPUT /usr/local/texlive/2017/texmf-dist/tex/latex/amsmath/amsopn.sty
INPUT /usr/local/texlive/2017/texmf-dist/tex/latex/amsmath/amsopn.sty
INPUT /usr/local/texlive/2017/texmf-dist/tex/latex/amsfonts/amssymb.sty
INPUT /usr/local/texlive/2017/texmf-dist/tex/latex/amsfonts/amssymb.sty
INPUT /usr/local/texlive/2017/texmf-dist/tex/latex/amsfonts/amsfonts.sty
INPUT /usr/local/texlive/2017/texmf-dist/tex/latex/amsfonts/amsfonts.sty
INPUT /usr/local/texlive/2017/texmf-dist/tex/latex/enumitem/enumitem.sty
INPUT /usr/local/texlive/2017/texmf-dist/tex/latex/enumitem/enumitem.sty
INPUT /usr/local/texlive/2017/texmf-dist/tex/latex/fancyhdr/fancyhdr.sty
INPUT /usr/local/texlive/2017/texmf-dist/tex/latex/fancyhdr/fancyhdr.sty
INPUT /usr/local/texlive/2017/texmf-dist/tex/latex/mathtools/mathtools.sty
INPUT /usr/local/texlive/2017/texmf-dist/tex/latex/mathtools/mathtools.sty
INPUT /usr/local/texlive/2017/texmf-dist/tex/latex/tools/calc.sty
INPUT /usr/local/texlive/2017/texmf-dist/tex/latex/tools/calc.sty
INPUT /usr/local/texlive/2017/texmf-dist/tex/latex/mathtools/mhsetup.sty
INPUT /usr/local/texlive/2017/texmf-dist/tex/latex/mathtools/mhsetup.sty
INPUT /usr/local/texlive/2017/texmf-dist/tex/latex/pgf/frontendlayer/tikz.sty
INPUT /usr/local/texlive/2017/texmf-dist/tex/latex/pgf/frontendlayer/tikz.sty
INPUT /usr/local/texlive/2017/texmf-dist/tex/latex/pgf/basiclayer/pgf.sty
INPUT /usr/local/texlive/2017/texmf-dist/tex/latex/pgf/basiclayer/pgf.sty
INPUT /usr/local/texlive/2017/texmf-dist/tex/latex/pgf/utilities/pgfrcs.sty
INPUT /usr/local/texlive/2017/texmf-dist/tex/latex/pgf/utilities/pgfrcs.sty
INPUT /usr/local/texlive/2017/texmf-dist/tex/generic/pgf/utilities/pgfutil-common.tex
INPUT /usr/local/texlive/2017/texmf-dist/tex/generic/pgf/utilities/pgfutil-common-lists.tex
INPUT /usr/local/texlive/2017/texmf-dist/tex/generic/pgf/utilities/pgfutil-latex.def
INPUT /usr/local/texlive/2017/texmf-dist/tex/latex/ms/everyshi.sty
INPUT /usr/local/texlive/2017/texmf-dist/tex/latex/ms/everyshi.sty
INPUT /usr/local/texlive/2017/texmf-dist/tex/generic/pgf/utilities/pgfrcs.code.tex
INPUT /usr/local/texlive/2017/texmf-dist/tex/generic/pgf/utilities/pgfrcs.code.tex
INPUT /usr/local/texlive/2017/texmf-dist/tex/latex/pgf/basiclayer/pgfcore.sty
INPUT /usr/local/texlive/2017/texmf-dist/tex/latex/pgf/basiclayer/pgfcore.sty
INPUT /usr/local/texlive/2017/texmf-dist/tex/latex/graphics/graphicx.sty
INPUT /usr/local/texlive/2017/texmf-dist/tex/latex/graphics/graphicx.sty
INPUT /usr/local/texlive/2017/texmf-dist/tex/latex/graphics/graphics.sty
INPUT /usr/local/texlive/2017/texmf-dist/tex/latex/graphics/graphics.sty
INPUT /usr/local/texlive/2017/texmf-dist/tex/latex/graphics/trig.sty
INPUT /usr/local/texlive/2017/texmf-dist/tex/latex/graphics/trig.sty
INPUT /usr/local/texlive/2017/texmf-dist/tex/latex/graphics-cfg/graphics.cfg
INPUT /usr/local/texlive/2017/texmf-dist/tex/latex/graphics-cfg/graphics.cfg
INPUT /usr/local/texlive/2017/texmf-dist/tex/latex/graphics-def/xetex.def
INPUT /usr/local/texlive/2017/texmf-dist/tex/latex/graphics-def/xetex.def
INPUT /usr/local/texlive/2017/texmf-dist/tex/latex/pgf/systemlayer/pgfsys.sty
INPUT /usr/local/texlive/2017/texmf-dist/tex/latex/pgf/systemlayer/pgfsys.sty
INPUT /usr/local/texlive/2017/texmf-dist/tex/generic/pgf/systemlayer/pgfsys.code.tex
INPUT /usr/local/texlive/2017/texmf-dist/tex/generic/pgf/systemlayer/pgfsys.code.tex
INPUT /usr/local/texlive/2017/texmf-dist/tex/generic/pgf/utilities/pgfkeys.code.tex
INPUT /usr/local/texlive/2017/texmf-dist/tex/generic/pgf/utilities/pgfkeysfiltered.code.tex
INPUT /usr/local/texlive/2017/texmf-dist/tex/generic/pgf/systemlayer/pgf.cfg
INPUT /usr/local/texlive/2017/texmf-dist/tex/generic/pgf/systemlayer/pgfsys-xetex.def
INPUT /usr/local/texlive/2017/texmf-dist/tex/generic/pgf/systemlayer/pgfsys-xetex.def
INPUT /usr/local/texlive/2017/texmf-dist/tex/generic/pgf/systemlayer/pgfsys-dvipdfmx.def
INPUT /usr/local/texlive/2017/texmf-dist/tex/generic/pgf/systemlayer/pgfsys-common-pdf.def
INPUT /usr/local/texlive/2017/texmf-dist/tex/generic/pgf/systemlayer/pgfsyssoftpath.code.tex
INPUT /usr/local/texlive/2017/texmf-dist/tex/generic/pgf/systemlayer/pgfsyssoftpath.code.tex
INPUT /usr/local/texlive/2017/texmf-dist/tex/generic/pgf/systemlayer/pgfsysprotocol.code.tex
INPUT /usr/local/texlive/2017/texmf-dist/tex/generic/pgf/systemlayer/pgfsysprotocol.code.tex
INPUT /usr/local/texlive/2017/texmf-dist/tex/latex/xcolor/xcolor.sty
INPUT /usr/local/texlive/2017/texmf-dist/tex/latex/xcolor/xcolor.sty
INPUT /usr/local/texlive/2017/texmf-dist/tex/latex/graphics-cfg/color.cfg
INPUT /usr/local/texlive/2017/texmf-dist/tex/latex/graphics-cfg/color.cfg
INPUT /usr/local/texlive/2017/texmf-dist/tex/generic/pgf/basiclayer/pgfcore.code.tex
INPUT /usr/local/texlive/2017/texmf-dist/tex/generic/pgf/basiclayer/pgfcore.code.tex
INPUT /usr/local/texlive/2017/texmf-dist/tex/generic/pgf/math/pgfmath.code.tex
INPUT /usr/local/texlive/2017/texmf-dist/tex/generic/pgf/math/pgfmathcalc.code.tex
INPUT /usr/local/texlive/2017/texmf-dist/tex/generic/pgf/math/pgfmathutil.code.tex
INPUT /usr/local/texlive/2017/texmf-dist/tex/generic/pgf/math/pgfmathparser.code.tex
INPUT /usr/local/texlive/2017/texmf-dist/tex/generic/pgf/math/pgfmathfunctions.code.tex
INPUT /usr/local/texlive/2017/texmf-dist/tex/generic/pgf/math/pgfmathfunctions.basic.code.tex
INPUT /usr/local/texlive/2017/texmf-dist/tex/generic/pgf/math/pgfmathfunctions.trigonometric.code.tex
INPUT /usr/local/texlive/2017/texmf-dist/tex/generic/pgf/math/pgfmathfunctions.random.code.tex
INPUT /usr/local/texlive/2017/texmf-dist/tex/generic/pgf/math/pgfmathfunctions.comparison.code.tex
INPUT /usr/local/texlive/2017/texmf-dist/tex/generic/pgf/math/pgfmathfunctions.base.code.tex
INPUT /usr/local/texlive/2017/texmf-dist/tex/generic/pgf/math/pgfmathfunctions.round.code.tex
INPUT /usr/local/texlive/2017/texmf-dist/tex/generic/pgf/math/pgfmathfunctions.misc.code.tex
INPUT /usr/local/texlive/2017/texmf-dist/tex/generic/pgf/math/pgfmathfunctions.integerarithmetics.code.tex
INPUT /usr/local/texlive/2017/texmf-dist/tex/generic/pgf/math/pgfmathfloat.code.tex
INPUT /usr/local/texlive/2017/texmf-dist/tex/generic/pgf/basiclayer/pgfcorepoints.code.tex
INPUT /usr/local/texlive/2017/texmf-dist/tex/generic/pgf/basiclayer/pgfcorepathconstruct.code.tex
INPUT /usr/local/texlive/2017/texmf-dist/tex/generic/pgf/basiclayer/pgfcorepathusage.code.tex
INPUT /usr/local/texlive/2017/texmf-dist/tex/generic/pgf/basiclayer/pgfcorescopes.code.tex
INPUT /usr/local/texlive/2017/texmf-dist/tex/generic/pgf/basiclayer/pgfcoregraphicstate.code.tex
INPUT /usr/local/texlive/2017/texmf-dist/tex/generic/pgf/basiclayer/pgfcoretransformations.code.tex
INPUT /usr/local/texlive/2017/texmf-dist/tex/generic/pgf/basiclayer/pgfcorequick.code.tex
INPUT /usr/local/texlive/2017/texmf-dist/tex/generic/pgf/basiclayer/pgfcoreobjects.code.tex
INPUT /usr/local/texlive/2017/texmf-dist/tex/generic/pgf/basiclayer/pgfcorepathprocessing.code.tex
INPUT /usr/local/texlive/2017/texmf-dist/tex/generic/pgf/basiclayer/pgfcorearrows.code.tex
INPUT /usr/local/texlive/2017/texmf-dist/tex/generic/pgf/basiclayer/pgfcoreshade.code.tex
INPUT /usr/local/texlive/2017/texmf-dist/tex/generic/pgf/basiclayer/pgfcoreimage.code.tex
INPUT /usr/local/texlive/2017/texmf-dist/tex/generic/pgf/basiclayer/pgfcoreexternal.code.tex
INPUT /usr/local/texlive/2017/texmf-dist/tex/generic/pgf/basiclayer/pgfcorelayers.code.tex
INPUT /usr/local/texlive/2017/texmf-dist/tex/generic/pgf/basiclayer/pgfcoretransparency.code.tex
INPUT /usr/local/texlive/2017/texmf-dist/tex/generic/pgf/basiclayer/pgfcorepatterns.code.tex
INPUT /usr/local/texlive/2017/texmf-dist/tex/generic/pgf/modules/pgfmoduleshapes.code.tex
INPUT /usr/local/texlive/2017/texmf-dist/tex/generic/pgf/modules/pgfmoduleplot.code.tex
INPUT /usr/local/texlive/2017/texmf-dist/tex/latex/pgf/compatibility/pgfcomp-version-0-65.sty
INPUT /usr/local/texlive/2017/texmf-dist/tex/latex/pgf/compatibility/pgfcomp-version-0-65.sty
INPUT /usr/local/texlive/2017/texmf-dist/tex/latex/pgf/compatibility/pgfcomp-version-1-18.sty
INPUT /usr/local/texlive/2017/texmf-dist/tex/latex/pgf/compatibility/pgfcomp-version-1-18.sty
INPUT /usr/local/texlive/2017/texmf-dist/tex/latex/pgf/utilities/pgffor.sty
INPUT /usr/local/texlive/2017/texmf-dist/tex/latex/pgf/utilities/pgffor.sty
INPUT /usr/local/texlive/2017/texmf-dist/tex/latex/pgf/utilities/pgfkeys.sty
INPUT /usr/local/texlive/2017/texmf-dist/tex/latex/pgf/utilities/pgfkeys.sty
INPUT /usr/local/texlive/2017/texmf-dist/tex/generic/pgf/utilities/pgfkeys.code.tex
INPUT /usr/local/texlive/2017/texmf-dist/tex/generic/pgf/utilities/pgfkeys.code.tex
INPUT /usr/local/texlive/2017/texmf-dist/tex/latex/pgf/math/pgfmath.sty
INPUT /usr/local/texlive/2017/texmf-dist/tex/latex/pgf/math/pgfmath.sty
INPUT /usr/local/texlive/2017/texmf-dist/tex/generic/pgf/math/pgfmath.code.tex
INPUT /usr/local/texlive/2017/texmf-dist/tex/generic/pgf/math/pgfmath.code.tex
INPUT /usr/local/texlive/2017/texmf-dist/tex/generic/pgf/utilities/pgffor.code.tex
INPUT /usr/local/texlive/2017/texmf-dist/tex/generic/pgf/utilities/pgffor.code.tex
INPUT /usr/local/texlive/2017/texmf-dist/tex/generic/pgf/math/pgfmath.code.tex
INPUT /usr/local/texlive/2017/texmf-dist/tex/generic/pgf/frontendlayer/tikz/tikz.code.tex
INPUT /usr/local/texlive/2017/texmf-dist/tex/generic/pgf/frontendlayer/tikz/tikz.code.tex
INPUT /usr/local/texlive/2017/texmf-dist/tex/generic/pgf/libraries/pgflibraryplothandlers.code.tex
INPUT /usr/local/texlive/2017/texmf-dist/tex/generic/pgf/libraries/pgflibraryplothandlers.code.tex
INPUT /usr/local/texlive/2017/texmf-dist/tex/generic/pgf/modules/pgfmodulematrix.code.tex
INPUT /usr/local/texlive/2017/texmf-dist/tex/generic/pgf/frontendlayer/tikz/libraries/tikzlibrarytopaths.code.tex
INPUT /usr/local/texlive/2017/texmf-dist/tex/generic/pgf/frontendlayer/tikz/libraries/tikzlibrarytopaths.code.tex
INPUT /usr/local/texlive/2017/texmf-dist/tex/latex/caption/subcaption.sty
INPUT /usr/local/texlive/2017/texmf-dist/tex/latex/caption/subcaption.sty
INPUT /usr/local/texlive/2017/texmf-dist/tex/latex/caption/caption.sty
INPUT /usr/local/texlive/2017/texmf-dist/tex/latex/caption/caption.sty
INPUT /usr/local/texlive/2017/texmf-dist/tex/latex/caption/caption3.sty
INPUT /usr/local/texlive/2017/texmf-dist/tex/latex/caption/caption3.sty
INPUT /usr/local/texlive/2017/texmf-dist/tex/latex/feynmf/feynmf.sty
INPUT /usr/local/texlive/2017/texmf-dist/tex/latex/feynmf/feynmf.sty
INPUT /usr/local/texlive/2017/texmf-dist/tex/latex/dirtytalk/dirtytalk.sty
INPUT /usr/local/texlive/2017/texmf-dist/tex/latex/dirtytalk/dirtytalk.sty
INPUT /usr/local/texlive/2017/texmf-dist/tex/latex/oberdiek/kvoptions.sty
INPUT /usr/local/texlive/2017/texmf-dist/tex/latex/oberdiek/kvoptions.sty
INPUT /usr/local/texlive/2017/texmf-dist/tex/generic/oberdiek/ltxcmds.sty
INPUT /usr/local/texlive/2017/texmf-dist/tex/generic/oberdiek/ltxcmds.sty
INPUT /usr/local/texlive/2017/texmf-dist/tex/generic/oberdiek/kvsetkeys.sty
INPUT /usr/local/texlive/2017/texmf-dist/tex/generic/oberdiek/kvsetkeys.sty
INPUT /usr/local/texlive/2017/texmf-dist/tex/generic/oberdiek/infwarerr.sty
INPUT /usr/local/texlive/2017/texmf-dist/tex/generic/oberdiek/infwarerr.sty
INPUT /usr/local/texlive/2017/texmf-dist/tex/generic/oberdiek/etexcmds.sty
INPUT /usr/local/texlive/2017/texmf-dist/tex/generic/oberdiek/etexcmds.sty
INPUT /usr/local/texlive/2017/texmf-dist/tex/generic/oberdiek/ifluatex.sty
INPUT /usr/local/texlive/2017/texmf-dist/tex/generic/oberdiek/ifluatex.sty
INPUT /usr/local/texlive/2017/texmf-dist/tex/latex/base/ifthen.sty
INPUT /usr/local/texlive/2017/texmf-dist/tex/latex/base/ifthen.sty
INPUT /usr/local/texlive/2017/texmf-dist/tex/generic/ulem/ulem.sty
INPUT /usr/local/texlive/2017/texmf-dist/tex/generic/ulem/ulem.sty
INPUT /usr/local/texlive/2017/texmf-dist/fonts/map/fontname/texfonts.map
INPUT /usr/local/texlive/2017/texmf-dist/fonts/tfm/public/latex-fonts/lasy6.tfm
INPUT /usr/local/texlive/2017/texmf-dist/tex/generic/pgf/frontendlayer/tikz/libraries/tikzlibrarytrees.code.tex
INPUT /usr/local/texlive/2017/texmf-dist/tex/generic/pgf/frontendlayer/tikz/libraries/tikzlibrarytrees.code.tex
INPUT hw8.aux
INPUT hw8.aux
OUTPUT hw8.aux
INPUT /usr/local/texlive/2017/texmf-dist/fonts/tfm/public/cm/cmr12.tfm
INPUT /usr/local/texlive/2017/texmf-dist/fonts/tfm/public/cm/cmmi12.tfm
INPUT /usr/local/texlive/2017/texmf-dist/fonts/tfm/public/cm/cmsy10.tfm
INPUT /usr/local/texlive/2017/texmf-dist/fonts/tfm/public/cm/cmex10.tfm
INPUT /usr/local/texlive/2017/texmf-dist/fonts/tfm/public/amsfonts/cmextra/cmex7.tfm
INPUT /usr/local/texlive/2017/texmf-dist/tex/latex/amsfonts/umsa.fd
INPUT /usr/local/texlive/2017/texmf-dist/tex/latex/amsfonts/umsa.fd
INPUT /usr/local/texlive/2017/texmf-dist/fonts/tfm/public/amsfonts/symbols/msam10.tfm
INPUT /usr/local/texlive/2017/texmf-dist/fonts/tfm/public/amsfonts/symbols/msam10.tfm
INPUT /usr/local/texlive/2017/texmf-dist/fonts/tfm/public/amsfonts/symbols/msam7.tfm
INPUT /usr/local/texlive/2017/texmf-dist/tex/latex/amsfonts/umsb.fd
INPUT /usr/local/texlive/2017/texmf-dist/tex/latex/amsfonts/umsb.fd
INPUT /usr/local/texlive/2017/texmf-dist/fonts/tfm/public/amsfonts/symbols/msbm10.tfm
INPUT /usr/local/texlive/2017/texmf-dist/fonts/tfm/public/amsfonts/symbols/msbm10.tfm
INPUT /usr/local/texlive/2017/texmf-dist/fonts/tfm/public/amsfonts/symbols/msbm7.tfm
INPUT /usr/local/texlive/2017/texmf-dist/fonts/tfm/public/cm/cmr12.tfm
INPUT /usr/local/texlive/2017/texmf-dist/fonts/tfm/public/cm/cmr8.tfm
INPUT /usr/local/texlive/2017/texmf-dist/fonts/tfm/public/cm/cmr6.tfm
INPUT /usr/local/texlive/2017/texmf-dist/fonts/tfm/public/cm/cmmi12.tfm
INPUT /usr/local/texlive/2017/texmf-dist/fonts/tfm/public/cm/cmmi8.tfm
INPUT /usr/local/texlive/2017/texmf-dist/fonts/tfm/public/cm/cmmi6.tfm
INPUT /usr/local/texlive/2017/texmf-dist/fonts/tfm/public/cm/cmsy10.tfm
INPUT /usr/local/texlive/2017/texmf-dist/fonts/tfm/public/cm/cmsy8.tfm
INPUT /usr/local/texlive/2017/texmf-dist/fonts/tfm/public/cm/cmsy6.tfm
INPUT /usr/local/texlive/2017/texmf-dist/fonts/tfm/public/cm/cmex10.tfm
INPUT /usr/local/texlive/2017/texmf-dist/fonts/tfm/public/amsfonts/cmextra/cmex8.tfm
INPUT /usr/local/texlive/2017/texmf-dist/fonts/tfm/public/amsfonts/cmextra/cmex7.tfm
INPUT /usr/local/texlive/2017/texmf-dist/fonts/tfm/public/amsfonts/symbols/msam10.tfm
INPUT /usr/local/texlive/2017/texmf-dist/fonts/tfm/public/amsfonts/symbols/msam10.tfm
INPUT /usr/local/texlive/2017/texmf-dist/fonts/tfm/public/amsfonts/symbols/msam7.tfm
INPUT /usr/local/texlive/2017/texmf-dist/fonts/tfm/public/amsfonts/symbols/msbm10.tfm
INPUT /usr/local/texlive/2017/texmf-dist/fonts/tfm/public/amsfonts/symbols/msbm10.tfm
INPUT /usr/local/texlive/2017/texmf-dist/fonts/tfm/public/amsfonts/symbols/msbm7.tfm
OUTPUT hw8.xdv
INPUT hw8.aux
