<?xml version="1.0" encoding="UTF-8" standalone="no"?>
<!-- Created with Inkscape (http://www.inkscape.org/) -->

<svg
   xmlns:dc="http://purl.org/dc/elements/1.1/"
   xmlns:cc="http://creativecommons.org/ns#"
   xmlns:rdf="http://www.w3.org/1999/02/22-rdf-syntax-ns#"
   xmlns:svg="http://www.w3.org/2000/svg"
   xmlns="http://www.w3.org/2000/svg"
   xmlns:xlink="http://www.w3.org/1999/xlink"
   xmlns:sodipodi="http://sodipodi.sourceforge.net/DTD/sodipodi-0.dtd"
   xmlns:inkscape="http://www.inkscape.org/namespaces/inkscape"
   width="100mm"
   height="100mm"
   viewBox="0 0 100 100"
   version="1.1"
   id="svg8"
   inkscape:version="0.92.2 5c3e80d, 2017-08-06"
   sodipodi:docname="drawing.svg">
  <defs
     id="defs2">
    <inkscape:path-effect
       effect="bspline"
       id="path-effect5948"
       is_visible="true"
       weight="33.333333"
       steps="2"
       helper_size="0"
       apply_no_weight="true"
       apply_with_weight="true"
       only_selected="false" />
    <inkscape:path-effect
       effect="spiro"
       id="path-effect4878"
       is_visible="true" />
    <inkscape:path-effect
       effect="bspline"
       id="path-effect4868"
       is_visible="true"
       weight="33.333333"
       steps="2"
       helper_size="0"
       apply_no_weight="true"
       apply_with_weight="true"
       only_selected="false" />
    <inkscape:path-effect
       effect="bspline"
       id="path-effect4864"
       is_visible="true"
       weight="33.333333"
       steps="2"
       helper_size="0"
       apply_no_weight="true"
       apply_with_weight="true"
       only_selected="false" />
    <inkscape:path-effect
       effect="bspline"
       id="path-effect4860"
       is_visible="true"
       weight="33.333333"
       steps="2"
       helper_size="0"
       apply_no_weight="true"
       apply_with_weight="true"
       only_selected="false" />
    <marker
       inkscape:stockid="Arrow1Lstart"
       orient="auto"
       refY="0.0"
       refX="0.0"
       id="Arrow1Lstart"
       style="overflow:visible"
       inkscape:isstock="true">
      <path
         id="path4510"
         d="M 0.0,0.0 L 5.0,-5.0 L -12.5,0.0 L 5.0,5.0 L 0.0,0.0 z "
         style="fill-rule:evenodd;stroke:#000000;stroke-width:1pt;stroke-opacity:1;fill:#000000;fill-opacity:1"
         transform="scale(0.8) translate(12.5,0)" />
    </marker>
    <marker
       inkscape:isstock="true"
       style="overflow:visible;"
       id="marker4800"
       refX="0.0"
       refY="0.0"
       orient="auto"
       inkscape:stockid="Arrow1Lend">
      <path
         transform="scale(0.8) rotate(180) translate(12.5,0)"
         style="fill-rule:evenodd;stroke:#0000fa;stroke-width:1pt;stroke-opacity:1;fill:#0000fa;fill-opacity:1"
         d="M 0.0,0.0 L 5.0,-5.0 L -12.5,0.0 L 5.0,5.0 L 0.0,0.0 z "
         id="path4798" />
    </marker>
    <marker
       inkscape:stockid="Arrow1Lend"
       orient="auto"
       refY="0.0"
       refX="0.0"
       id="Arrow1Lend"
       style="overflow:visible;"
       inkscape:isstock="true"
       inkscape:collect="always">
      <path
         id="path4513"
         d="M 0.0,0.0 L 5.0,-5.0 L -12.5,0.0 L 5.0,5.0 L 0.0,0.0 z "
         style="fill-rule:evenodd;stroke:#000000;stroke-width:1pt;stroke-opacity:1;fill:#000000;fill-opacity:1"
         transform="scale(0.8) rotate(180) translate(12.5,0)" />
    </marker>
    <clipPath
       id="clipPath4977"
       clipPathUnits="userSpaceOnUse">
      <path
         inkscape:connector-curvature="0"
         id="path4975"
         d="M 0,0 H 65 V 41 H 0 Z" />
    </clipPath>
    <g
       id="g5081">
      <symbol
         id="glyph0-0"
         overflow="visible">
        <path
           id="path5060"
           d=""
           style="stroke:none;" />
      </symbol>
      <symbol
         id="glyph0-1"
         overflow="visible">
        <path
           id="path5063"
           d="M 10.546875 -22.953125 C 10.546875 -23.8125 10.546875 -23.875 9.71875 -23.875 C 7.5 -21.59375 4.34375 -21.59375 3.1875 -21.59375 L 3.1875 -20.46875 C 3.90625 -20.46875 6.03125 -20.46875 7.890625 -21.40625 L 7.890625 -2.828125 C 7.890625 -1.546875 7.78125 -1.109375 4.546875 -1.109375 L 3.40625 -1.109375 L 3.40625 0 C 4.65625 -0.109375 7.78125 -0.109375 9.21875 -0.109375 C 10.65625 -0.109375 13.765625 -0.109375 15.03125 0 L 15.03125 -1.109375 L 13.875 -1.109375 C 10.65625 -1.109375 10.546875 -1.5 10.546875 -2.828125 Z M 10.546875 -22.953125 "
           style="stroke:none;" />
      </symbol>
      <symbol
         id="glyph1-0"
         overflow="visible">
        <path
           id="path5066"
           d=""
           style="stroke:none;" />
      </symbol>
      <symbol
         id="glyph1-1"
         overflow="visible">
        <path
           id="path5069"
           d="M 15.75 -25.53125 C 15.921875 -26 15.921875 -26.140625 15.921875 -26.171875 C 15.921875 -26.578125 15.59375 -26.890625 15.203125 -26.890625 C 14.953125 -26.890625 14.703125 -26.78125 14.59375 -26.578125 L 2.15625 7.609375 C 1.96875 8.0625 1.96875 8.21875 1.96875 8.25 C 1.96875 8.640625 2.296875 8.96875 2.6875 8.96875 C 3.15625 8.96875 3.265625 8.71875 3.484375 8.109375 Z M 15.75 -25.53125 "
           style="stroke:none;" />
      </symbol>
      <symbol
         id="glyph1-2"
         overflow="visible">
        <path
           id="path5072"
           d="M 1.1875 6.203125 C 1.078125 6.640625 1.078125 6.703125 1.078125 6.78125 C 1.078125 7.3125 1.46875 7.75 2.078125 7.75 C 2.828125 7.75 3.265625 7.09375 3.328125 7 C 3.515625 6.671875 4.65625 1.859375 5.625 -2.015625 C 6.34375 -0.578125 7.5 0.390625 9.1875 0.390625 C 13.375 0.390625 18 -4.65625 18 -10 C 18 -13.8125 15.640625 -15.84375 13.015625 -15.84375 C 9.53125 -15.84375 5.765625 -12.265625 4.703125 -7.890625 Z M 9.140625 -0.390625 C 6.640625 -0.390625 6.0625 -3.265625 6.0625 -3.578125 C 6.0625 -3.734375 6.234375 -4.453125 6.34375 -4.90625 C 7.34375 -8.921875 7.703125 -10.21875 8.5 -11.65625 C 10.046875 -14.265625 11.828125 -15.0625 12.9375 -15.0625 C 14.265625 -15.0625 15.421875 -14.015625 15.421875 -11.546875 C 15.421875 -9.578125 14.375 -5.5625 13.40625 -3.796875 C 12.234375 -1.546875 10.5 -0.390625 9.140625 -0.390625 Z M 9.140625 -0.390625 "
           style="stroke:none;" />
      </symbol>
      <symbol
         id="glyph2-0"
         overflow="visible">
        <path
           id="path5075"
           d=""
           style="stroke:none;" />
      </symbol>
      <symbol
         id="glyph2-1"
         overflow="visible">
        <path
           id="path5078"
           d="M 12.6875 -4.5625 L 11.828125 -4.5625 C 11.75 -4.015625 11.5 -2.53125 11.171875 -2.28125 C 10.96875 -2.140625 9.046875 -2.140625 8.6875 -2.140625 L 4.0625 -2.140625 C 6.703125 -4.46875 7.578125 -5.171875 9.09375 -6.359375 C 10.953125 -7.828125 12.6875 -9.390625 12.6875 -11.78125 C 12.6875 -14.8125 10.015625 -16.671875 6.796875 -16.671875 C 3.6875 -16.671875 1.578125 -14.484375 1.578125 -12.171875 C 1.578125 -10.890625 2.65625 -10.765625 2.90625 -10.765625 C 3.515625 -10.765625 4.25 -11.203125 4.25 -12.109375 C 4.25 -12.546875 4.0625 -13.4375 2.765625 -13.4375 C 3.546875 -15.21875 5.25 -15.765625 6.421875 -15.765625 C 8.9375 -15.765625 10.25 -13.8125 10.25 -11.78125 C 10.25 -9.59375 8.6875 -7.859375 7.890625 -6.953125 L 1.828125 -0.984375 C 1.578125 -0.75 1.578125 -0.703125 1.578125 0 L 11.921875 0 Z M 12.6875 -4.5625 "
           style="stroke:none;" />
      </symbol>
    </g>
    <g
       id="g5192">
      <symbol
         id="glyph0-0-7"
         overflow="visible">
        <path
           id="path5171"
           d=""
           style="stroke:none;" />
      </symbol>
      <symbol
         id="glyph0-1-9"
         overflow="visible">
        <path
           id="path5174"
           d="M 5.859375 -12.75 C 5.859375 -13.234375 5.859375 -13.265625 5.40625 -13.265625 C 4.15625 -12 2.40625 -12 1.765625 -12 L 1.765625 -11.375 C 2.171875 -11.375 3.34375 -11.375 4.375 -11.890625 L 4.375 -1.578125 C 4.375 -0.859375 4.328125 -0.625 2.53125 -0.625 L 1.890625 -0.625 L 1.890625 0 C 2.59375 -0.0625 4.328125 -0.0625 5.125 -0.0625 C 5.921875 -0.0625 7.65625 -0.0625 8.34375 0 L 8.34375 -0.625 L 7.703125 -0.625 C 5.921875 -0.625 5.859375 -0.84375 5.859375 -1.578125 Z M 5.859375 -12.75 "
           style="stroke:none;" />
      </symbol>
      <symbol
         id="glyph1-0-3"
         overflow="visible">
        <path
           id="path5177"
           d=""
           style="stroke:none;" />
      </symbol>
      <symbol
         id="glyph1-1-8"
         overflow="visible">
        <path
           id="path5180"
           d="M 8.75 -14.1875 C 8.84375 -14.4375 8.84375 -14.515625 8.84375 -14.546875 C 8.84375 -14.765625 8.671875 -14.9375 8.453125 -14.9375 C 8.3125 -14.9375 8.171875 -14.875 8.109375 -14.765625 L 1.1875 4.21875 C 1.09375 4.484375 1.09375 4.5625 1.09375 4.578125 C 1.09375 4.796875 1.28125 4.984375 1.5 4.984375 C 1.75 4.984375 1.8125 4.84375 1.9375 4.5 Z M 8.75 -14.1875 "
           style="stroke:none;" />
      </symbol>
      <symbol
         id="glyph1-2-0"
         overflow="visible">
        <path
           id="path5183"
           d="M 0.65625 3.453125 C 0.59375 3.6875 0.59375 3.71875 0.59375 3.765625 C 0.59375 4.0625 0.8125 4.296875 1.15625 4.296875 C 1.578125 4.296875 1.8125 3.9375 1.859375 3.890625 C 1.953125 3.703125 2.59375 1.03125 3.125 -1.109375 C 3.53125 -0.3125 4.15625 0.21875 5.09375 0.21875 C 7.4375 0.21875 10 -2.59375 10 -5.5625 C 10 -7.671875 8.6875 -8.8125 7.234375 -8.8125 C 5.296875 -8.8125 3.203125 -6.8125 2.609375 -4.375 Z M 5.078125 -0.21875 C 3.6875 -0.21875 3.359375 -1.8125 3.359375 -1.984375 C 3.359375 -2.078125 3.46875 -2.46875 3.53125 -2.734375 C 4.078125 -4.953125 4.28125 -5.671875 4.71875 -6.46875 C 5.578125 -7.921875 6.578125 -8.359375 7.1875 -8.359375 C 7.921875 -8.359375 8.5625 -7.796875 8.5625 -6.421875 C 8.5625 -5.3125 7.984375 -3.09375 7.453125 -2.109375 C 6.796875 -0.859375 5.84375 -0.21875 5.078125 -0.21875 Z M 5.078125 -0.21875 "
           style="stroke:none;" />
      </symbol>
      <symbol
         id="glyph2-0-2"
         overflow="visible">
        <path
           id="path5186"
           d=""
           style="stroke:none;" />
      </symbol>
      <symbol
         id="glyph2-1-4"
         overflow="visible">
        <path
           id="path5189"
           d="M 7.046875 -2.546875 L 6.578125 -2.546875 C 6.53125 -2.234375 6.390625 -1.40625 6.203125 -1.265625 C 6.09375 -1.1875 5.015625 -1.1875 4.828125 -1.1875 L 2.265625 -1.1875 C 3.71875 -2.484375 4.21875 -2.875 5.046875 -3.53125 C 6.078125 -4.359375 7.046875 -5.21875 7.046875 -6.546875 C 7.046875 -8.234375 5.5625 -9.265625 3.78125 -9.265625 C 2.046875 -9.265625 0.875 -8.046875 0.875 -6.765625 C 0.875 -6.0625 1.484375 -5.984375 1.625 -5.984375 C 1.953125 -5.984375 2.359375 -6.21875 2.359375 -6.71875 C 2.359375 -6.984375 2.265625 -7.46875 1.53125 -7.46875 C 1.96875 -8.453125 2.921875 -8.765625 3.578125 -8.765625 C 4.96875 -8.765625 5.6875 -7.671875 5.6875 -6.546875 C 5.6875 -5.328125 4.828125 -4.375 4.375 -3.859375 L 1.015625 -0.546875 C 0.875 -0.421875 0.875 -0.390625 0.875 0 L 6.625 0 Z M 7.046875 -2.546875 "
           style="stroke:none;" />
      </symbol>
    </g>
    <clipPath
       id="clipPath5300"
       clipPathUnits="userSpaceOnUse">
      <path
         inkscape:connector-curvature="0"
         id="path5298"
         d="M 0,0 H 31 V 40 H 0 Z" />
    </clipPath>
    <g
       id="g5386">
      <symbol
         id="glyph0-0-8"
         overflow="visible">
        <path
           id="path5365"
           d=""
           style="stroke:none;" />
      </symbol>
      <symbol
         id="glyph0-1-3"
         overflow="visible">
        <path
           id="path5368"
           d="M 5.859375 -12.75 C 5.859375 -13.234375 5.859375 -13.265625 5.40625 -13.265625 C 4.15625 -12 2.40625 -12 1.765625 -12 L 1.765625 -11.375 C 2.171875 -11.375 3.34375 -11.375 4.375 -11.890625 L 4.375 -1.578125 C 4.375 -0.859375 4.328125 -0.625 2.53125 -0.625 L 1.890625 -0.625 L 1.890625 0 C 2.59375 -0.0625 4.328125 -0.0625 5.125 -0.0625 C 5.921875 -0.0625 7.65625 -0.0625 8.34375 0 L 8.34375 -0.625 L 7.703125 -0.625 C 5.921875 -0.625 5.859375 -0.84375 5.859375 -1.578125 Z M 5.859375 -12.75 "
           style="stroke:none;" />
      </symbol>
      <symbol
         id="glyph1-0-9"
         overflow="visible">
        <path
           id="path5371"
           d=""
           style="stroke:none;" />
      </symbol>
      <symbol
         id="glyph1-1-0"
         overflow="visible">
        <path
           id="path5374"
           d="M 8.75 -14.1875 C 8.84375 -14.4375 8.84375 -14.515625 8.84375 -14.546875 C 8.84375 -14.765625 8.671875 -14.9375 8.453125 -14.9375 C 8.3125 -14.9375 8.171875 -14.875 8.109375 -14.765625 L 1.1875 4.21875 C 1.09375 4.484375 1.09375 4.5625 1.09375 4.578125 C 1.09375 4.796875 1.28125 4.984375 1.5 4.984375 C 1.75 4.984375 1.8125 4.84375 1.9375 4.5 Z M 8.75 -14.1875 "
           style="stroke:none;" />
      </symbol>
      <symbol
         id="glyph1-2-5"
         overflow="visible">
        <path
           id="path5377"
           d="M 0.65625 3.453125 C 0.59375 3.6875 0.59375 3.71875 0.59375 3.765625 C 0.59375 4.0625 0.8125 4.296875 1.15625 4.296875 C 1.578125 4.296875 1.8125 3.9375 1.859375 3.890625 C 1.953125 3.703125 2.59375 1.03125 3.125 -1.109375 C 3.53125 -0.3125 4.15625 0.21875 5.09375 0.21875 C 7.4375 0.21875 10 -2.59375 10 -5.5625 C 10 -7.671875 8.6875 -8.8125 7.234375 -8.8125 C 5.296875 -8.8125 3.203125 -6.8125 2.609375 -4.375 Z M 5.078125 -0.21875 C 3.6875 -0.21875 3.359375 -1.8125 3.359375 -1.984375 C 3.359375 -2.078125 3.46875 -2.46875 3.53125 -2.734375 C 4.078125 -4.953125 4.28125 -5.671875 4.71875 -6.46875 C 5.578125 -7.921875 6.578125 -8.359375 7.1875 -8.359375 C 7.921875 -8.359375 8.5625 -7.796875 8.5625 -6.421875 C 8.5625 -5.3125 7.984375 -3.09375 7.453125 -2.109375 C 6.796875 -0.859375 5.84375 -0.21875 5.078125 -0.21875 Z M 5.078125 -0.21875 "
           style="stroke:none;" />
      </symbol>
      <symbol
         id="glyph2-0-22"
         overflow="visible">
        <path
           id="path5380"
           d=""
           style="stroke:none;" />
      </symbol>
      <symbol
         id="glyph2-1-7"
         overflow="visible">
        <path
           id="path5383"
           d="M 7.046875 -2.546875 L 6.578125 -2.546875 C 6.53125 -2.234375 6.390625 -1.40625 6.203125 -1.265625 C 6.09375 -1.1875 5.015625 -1.1875 4.828125 -1.1875 L 2.265625 -1.1875 C 3.71875 -2.484375 4.21875 -2.875 5.046875 -3.53125 C 6.078125 -4.359375 7.046875 -5.21875 7.046875 -6.546875 C 7.046875 -8.234375 5.5625 -9.265625 3.78125 -9.265625 C 2.046875 -9.265625 0.875 -8.046875 0.875 -6.765625 C 0.875 -6.0625 1.484375 -5.984375 1.625 -5.984375 C 1.953125 -5.984375 2.359375 -6.21875 2.359375 -6.71875 C 2.359375 -6.984375 2.265625 -7.46875 1.53125 -7.46875 C 1.96875 -8.453125 2.921875 -8.765625 3.578125 -8.765625 C 4.96875 -8.765625 5.6875 -7.671875 5.6875 -6.546875 C 5.6875 -5.328125 4.828125 -4.375 4.375 -3.859375 L 1.015625 -0.546875 C 0.875 -0.421875 0.875 -0.390625 0.875 0 L 6.625 0 Z M 7.046875 -2.546875 "
           style="stroke:none;" />
      </symbol>
    </g>
    <g
       id="g5500">
      <symbol
         id="glyph0-0-3"
         overflow="visible">
        <path
           id="path5476"
           d=""
           style="stroke:none;" />
      </symbol>
      <symbol
         id="glyph0-1-7"
         overflow="visible">
        <path
           id="path5479"
           d="M 14.390625 -0.640625 C 14.296875 -0.640625 13.984375 -0.59375 13.921875 -0.59375 C 12.34375 -0.59375 11.296875 -2.15625 10.625 -3.1875 C 10.421875 -3.53125 9.875 -4.34375 9.65625 -4.6875 C 10.140625 -5.75 11.46875 -8.234375 13.84375 -8.234375 C 13.984375 -8.234375 14.171875 -8.234375 14.390625 -8.171875 C 14.390625 -8.6875 14.359375 -8.703125 14.328125 -8.75 C 14.1875 -8.78125 13.890625 -8.8125 13.703125 -8.8125 C 11.171875 -8.8125 9.703125 -6.375 9.21875 -5.375 C 8.421875 -6.59375 8.140625 -7.03125 7.40625 -7.65625 C 6.203125 -8.703125 5.09375 -8.8125 4.609375 -8.8125 C 2.390625 -8.8125 1.109375 -6.578125 1.109375 -4.28125 C 1.109375 -2.046875 2.34375 0.21875 4.546875 0.21875 C 7.078125 0.21875 8.546875 -2.21875 9.03125 -3.203125 C 9.828125 -1.984375 10.09375 -1.546875 10.84375 -0.9375 C 12.046875 0.125 13.140625 0.21875 13.640625 0.21875 C 13.890625 0.21875 14.203125 0.171875 14.390625 0.140625 Z M 8.59375 -3.90625 C 8.109375 -2.828125 6.765625 -0.359375 4.40625 -0.359375 C 2.46875 -0.359375 1.546875 -2.46875 1.546875 -4.28125 C 1.546875 -6.25 2.671875 -7.984375 4.328125 -7.984375 C 5.890625 -7.984375 6.953125 -6.4375 7.625 -5.40625 C 7.828125 -5.0625 8.359375 -4.25 8.59375 -3.90625 Z M 8.59375 -3.90625 "
           style="stroke:none;" />
      </symbol>
      <symbol
         id="glyph1-0-90"
         overflow="visible">
        <path
           id="path5482"
           d=""
           style="stroke:none;" />
      </symbol>
      <symbol
         id="glyph1-1-2"
         overflow="visible">
        <path
           id="path5485"
           d="M 8.71875 -0.125 C 11.8125 -1.296875 14.734375 -4.84375 14.734375 -8.6875 C 14.734375 -11.890625 12.625 -14.046875 9.65625 -14.046875 C 5.359375 -14.046875 0.96875 -9.515625 0.96875 -4.875 C 0.96875 -1.578125 3.203125 0.4375 6.078125 0.4375 C 6.578125 0.4375 7.25 0.359375 8.03125 0.140625 C 7.953125 1.375 7.953125 1.421875 7.953125 1.671875 C 7.953125 2.3125 7.953125 3.859375 9.609375 3.859375 C 11.96875 3.859375 12.921875 0.21875 12.921875 0 C 12.921875 -0.140625 12.796875 -0.203125 12.703125 -0.203125 C 12.546875 -0.203125 12.515625 -0.09375 12.46875 0.015625 C 12 1.4375 10.84375 1.9375 10.140625 1.9375 C 9.21875 1.9375 8.921875 1.390625 8.71875 -0.125 Z M 4.953125 -0.28125 C 3.40625 -0.890625 2.734375 -2.453125 2.734375 -4.25 C 2.734375 -5.625 3.25 -8.453125 4.765625 -10.59375 C 6.21875 -12.625 8.09375 -13.546875 9.546875 -13.546875 C 11.53125 -13.546875 12.984375 -12 12.984375 -9.328125 C 12.984375 -7.328125 11.96875 -2.671875 8.625 -0.796875 C 8.53125 -1.5 8.328125 -2.953125 6.875 -2.953125 C 5.8125 -2.953125 4.84375 -1.953125 4.84375 -0.921875 C 4.84375 -0.515625 4.953125 -0.296875 4.953125 -0.28125 Z M 6.203125 -0.0625 C 5.921875 -0.0625 5.28125 -0.0625 5.28125 -0.921875 C 5.28125 -1.71875 6.03125 -2.515625 6.875 -2.515625 C 7.703125 -2.515625 8.09375 -2.03125 8.09375 -0.8125 C 8.09375 -0.515625 8.0625 -0.5 7.875 -0.421875 C 7.34375 -0.203125 6.75 -0.0625 6.203125 -0.0625 Z M 6.203125 -0.0625 "
           style="stroke:none;" />
      </symbol>
      <symbol
         id="glyph1-2-3"
         overflow="visible">
        <path
           id="path5488"
           d="M 8.75 -14.1875 C 8.84375 -14.4375 8.84375 -14.515625 8.84375 -14.546875 C 8.84375 -14.765625 8.671875 -14.9375 8.453125 -14.9375 C 8.3125 -14.9375 8.171875 -14.875 8.109375 -14.765625 L 1.1875 4.21875 C 1.09375 4.484375 1.09375 4.5625 1.09375 4.578125 C 1.09375 4.796875 1.28125 4.984375 1.5 4.984375 C 1.75 4.984375 1.8125 4.84375 1.9375 4.5 Z M 8.75 -14.1875 "
           style="stroke:none;" />
      </symbol>
      <symbol
         id="glyph1-3"
         overflow="visible">
        <path
           id="path5491"
           d="M 0.65625 3.453125 C 0.59375 3.6875 0.59375 3.71875 0.59375 3.765625 C 0.59375 4.0625 0.8125 4.296875 1.15625 4.296875 C 1.578125 4.296875 1.8125 3.9375 1.859375 3.890625 C 1.953125 3.703125 2.59375 1.03125 3.125 -1.109375 C 3.53125 -0.3125 4.15625 0.21875 5.09375 0.21875 C 7.4375 0.21875 10 -2.59375 10 -5.5625 C 10 -7.671875 8.6875 -8.8125 7.234375 -8.8125 C 5.296875 -8.8125 3.203125 -6.8125 2.609375 -4.375 Z M 5.078125 -0.21875 C 3.6875 -0.21875 3.359375 -1.8125 3.359375 -1.984375 C 3.359375 -2.078125 3.46875 -2.46875 3.53125 -2.734375 C 4.078125 -4.953125 4.28125 -5.671875 4.71875 -6.46875 C 5.578125 -7.921875 6.578125 -8.359375 7.1875 -8.359375 C 7.921875 -8.359375 8.5625 -7.796875 8.5625 -6.421875 C 8.5625 -5.3125 7.984375 -3.09375 7.453125 -2.109375 C 6.796875 -0.859375 5.84375 -0.21875 5.078125 -0.21875 Z M 5.078125 -0.21875 "
           style="stroke:none;" />
      </symbol>
      <symbol
         id="glyph2-0-9"
         overflow="visible">
        <path
           id="path5494"
           d=""
           style="stroke:none;" />
      </symbol>
      <symbol
         id="glyph2-1-9"
         overflow="visible">
        <path
           id="path5497"
           d="M 7.046875 -2.546875 L 6.578125 -2.546875 C 6.53125 -2.234375 6.390625 -1.40625 6.203125 -1.265625 C 6.09375 -1.1875 5.015625 -1.1875 4.828125 -1.1875 L 2.265625 -1.1875 C 3.71875 -2.484375 4.21875 -2.875 5.046875 -3.53125 C 6.078125 -4.359375 7.046875 -5.21875 7.046875 -6.546875 C 7.046875 -8.234375 5.5625 -9.265625 3.78125 -9.265625 C 2.046875 -9.265625 0.875 -8.046875 0.875 -6.765625 C 0.875 -6.0625 1.484375 -5.984375 1.625 -5.984375 C 1.953125 -5.984375 2.359375 -6.21875 2.359375 -6.71875 C 2.359375 -6.984375 2.265625 -7.46875 1.53125 -7.46875 C 1.96875 -8.453125 2.921875 -8.765625 3.578125 -8.765625 C 4.96875 -8.765625 5.6875 -7.671875 5.6875 -6.546875 C 5.6875 -5.328125 4.828125 -4.375 4.375 -3.859375 L 1.015625 -0.546875 C 0.875 -0.421875 0.875 -0.390625 0.875 0 L 6.625 0 Z M 7.046875 -2.546875 "
           style="stroke:none;" />
      </symbol>
    </g>
    <g
       id="g5603">
      <symbol
         id="glyph0-0-70"
         overflow="visible">
        <path
           id="path5588"
           d=""
           style="stroke:none;" />
      </symbol>
      <symbol
         id="glyph0-1-39"
         overflow="visible">
        <path
           id="path5591"
           d="M 12.515625 -11.328125 C 13.484375 -12.890625 14.328125 -12.953125 15.0625 -12.984375 C 15.296875 -13.015625 15.3125 -13.34375 15.3125 -13.375 C 15.3125 -13.53125 15.21875 -13.609375 15.0625 -13.609375 C 14.546875 -13.609375 13.96875 -13.546875 13.421875 -13.546875 C 12.765625 -13.546875 12.09375 -13.609375 11.453125 -13.609375 C 11.328125 -13.609375 11.078125 -13.609375 11.078125 -13.234375 C 11.078125 -13.015625 11.25 -12.984375 11.390625 -12.984375 C 11.9375 -12.953125 12.3125 -12.75 12.3125 -12.328125 C 12.3125 -12.03125 12.015625 -11.59375 12.015625 -11.578125 L 5.890625 -1.859375 L 4.546875 -12.390625 C 4.546875 -12.734375 5 -12.984375 5.921875 -12.984375 C 6.203125 -12.984375 6.421875 -12.984375 6.421875 -13.390625 C 6.421875 -13.5625 6.25 -13.609375 6.140625 -13.609375 C 5.34375 -13.609375 4.484375 -13.546875 3.671875 -13.546875 C 3.3125 -13.546875 2.921875 -13.5625 2.5625 -13.5625 C 2.21875 -13.5625 1.828125 -13.609375 1.5 -13.609375 C 1.359375 -13.609375 1.109375 -13.609375 1.109375 -13.234375 C 1.109375 -12.984375 1.296875 -12.984375 1.609375 -12.984375 C 2.734375 -12.984375 2.75 -12.8125 2.8125 -12.3125 L 4.375 -0.015625 C 4.4375 0.375 4.515625 0.4375 4.78125 0.4375 C 5.09375 0.4375 5.171875 0.34375 5.34375 0.078125 Z M 12.515625 -11.328125 "
           style="stroke:none;" />
      </symbol>
      <symbol
         id="glyph1-0-8"
         overflow="visible">
        <path
           id="path5594"
           d=""
           style="stroke:none;" />
      </symbol>
      <symbol
         id="glyph1-1-6"
         overflow="visible">
        <path
           id="path5597"
           d="M 6.140625 -3.1875 C 6.4375 -3.1875 6.53125 -3.1875 6.53125 -3.484375 C 6.53125 -4.71875 5.84375 -6.21875 3.765625 -6.21875 C 1.9375 -6.21875 0.546875 -4.765625 0.546875 -3.0625 C 0.546875 -1.28125 2.09375 0.140625 3.953125 0.140625 C 5.828125 0.140625 6.53125 -1.375 6.53125 -1.671875 C 6.53125 -1.734375 6.5 -1.875 6.296875 -1.875 C 6.109375 -1.875 6.078125 -1.78125 6.046875 -1.640625 C 5.609375 -0.515625 4.546875 -0.3125 4.046875 -0.3125 C 3.390625 -0.3125 2.765625 -0.59375 2.34375 -1.125 C 1.828125 -1.78125 1.8125 -2.640625 1.8125 -3.1875 Z M 1.828125 -3.546875 C 1.984375 -5.515625 3.234375 -5.828125 3.765625 -5.828125 C 5.484375 -5.828125 5.546875 -3.890625 5.546875 -3.546875 Z M 1.828125 -3.546875 "
           style="stroke:none;" />
      </symbol>
      <symbol
         id="glyph1-2-57"
         overflow="visible">
        <path
           id="path5600"
           d="M 7.28125 -5.515625 L 9.046875 -5.515625 L 9.046875 -6.015625 L 7.234375 -6.015625 L 7.234375 -7.578125 C 7.234375 -8.828125 7.96875 -9.4375 8.59375 -9.4375 C 8.71875 -9.4375 8.859375 -9.40625 9 -9.359375 C 8.796875 -9.25 8.6875 -9.03125 8.6875 -8.796875 C 8.6875 -8.421875 8.953125 -8.15625 9.328125 -8.15625 C 9.71875 -8.15625 9.96875 -8.421875 9.96875 -8.796875 C 9.96875 -9.40625 9.375 -9.828125 8.609375 -9.828125 C 8.109375 -9.828125 7.5 -9.671875 6.984375 -9.234375 C 6.53125 -9.734375 5.703125 -9.828125 5.15625 -9.828125 C 3.640625 -9.828125 1.734375 -9.125 1.734375 -7.546875 L 1.734375 -6.015625 L 0.53125 -6.015625 L 0.53125 -5.515625 L 1.734375 -5.515625 L 1.734375 -1.109375 C 1.734375 -0.5 1.59375 -0.5 0.6875 -0.5 L 0.6875 0 C 0.71875 0 1.6875 -0.0625 2.25 -0.0625 C 2.78125 -0.0625 3.296875 -0.046875 3.828125 0 L 3.828125 -0.5 C 2.921875 -0.5 2.78125 -0.5 2.78125 -1.109375 L 2.78125 -5.515625 L 6.234375 -5.515625 L 6.234375 -1.109375 C 6.234375 -0.5 6.09375 -0.5 5.1875 -0.5 L 5.1875 0 C 5.265625 0 6.203125 -0.0625 6.78125 -0.0625 C 7.375 -0.0625 8 -0.03125 8.59375 0 L 8.59375 -0.5 L 8.3125 -0.5 C 7.28125 -0.5 7.28125 -0.65625 7.28125 -1.125 Z M 2.71875 -6.015625 L 2.71875 -7.53125 C 2.71875 -8.890625 4.09375 -9.4375 5.125 -9.4375 C 5.25 -9.4375 5.84375 -9.4375 6.3125 -9.203125 C 6.15625 -9.15625 5.921875 -8.96875 5.921875 -8.609375 C 5.921875 -8.40625 5.984375 -8.171875 6.265625 -8.03125 C 6.234375 -7.890625 6.234375 -7.71875 6.234375 -7.578125 L 6.234375 -6.015625 Z M 2.71875 -6.015625 "
           style="stroke:none;" />
      </symbol>
    </g>
    <clipPath
       id="clip1">
      <path
         id="path5605"
         d="M 18 7 L 28.945312 7 L 28.945312 18 L 18 18 Z M 18 7 " />
    </clipPath>
    <g
       id="g5677">
      <symbol
         id="glyph0-0-6"
         overflow="visible">
        <path
           id="path5671"
           d=""
           style="stroke:none;" />
      </symbol>
      <symbol
         id="glyph0-1-2"
         overflow="visible">
        <path
           id="path5674"
           d="M 0.65625 3.453125 C 0.59375 3.6875 0.59375 3.71875 0.59375 3.765625 C 0.59375 4.0625 0.8125 4.296875 1.15625 4.296875 C 1.578125 4.296875 1.8125 3.9375 1.859375 3.890625 C 1.953125 3.703125 2.59375 1.03125 3.125 -1.109375 C 3.53125 -0.3125 4.15625 0.21875 5.09375 0.21875 C 7.4375 0.21875 10 -2.59375 10 -5.5625 C 10 -7.671875 8.6875 -8.8125 7.234375 -8.8125 C 5.296875 -8.8125 3.203125 -6.8125 2.609375 -4.375 Z M 5.078125 -0.21875 C 3.6875 -0.21875 3.359375 -1.8125 3.359375 -1.984375 C 3.359375 -2.078125 3.46875 -2.46875 3.53125 -2.734375 C 4.078125 -4.953125 4.28125 -5.671875 4.71875 -6.46875 C 5.578125 -7.921875 6.578125 -8.359375 7.1875 -8.359375 C 7.921875 -8.359375 8.5625 -7.796875 8.5625 -6.421875 C 8.5625 -5.3125 7.984375 -3.09375 7.453125 -2.109375 C 6.796875 -0.859375 5.84375 -0.21875 5.078125 -0.21875 Z M 5.078125 -0.21875 "
           style="stroke:none;" />
      </symbol>
    </g>
    <g
       id="g5985">
      <symbol
         id="glyph0-0-703"
         overflow="visible">
        <path
           id="path5973"
           d=""
           style="stroke:none;" />
      </symbol>
      <symbol
         id="glyph0-1-99"
         overflow="visible">
        <path
           id="path5976"
           d="M 0.65625 3.453125 C 0.59375 3.6875 0.59375 3.71875 0.59375 3.765625 C 0.59375 4.0625 0.8125 4.296875 1.15625 4.296875 C 1.578125 4.296875 1.8125 3.9375 1.859375 3.890625 C 1.953125 3.703125 2.59375 1.03125 3.125 -1.109375 C 3.53125 -0.3125 4.15625 0.21875 5.09375 0.21875 C 7.4375 0.21875 10 -2.59375 10 -5.5625 C 10 -7.671875 8.6875 -8.8125 7.234375 -8.8125 C 5.296875 -8.8125 3.203125 -6.8125 2.609375 -4.375 Z M 5.078125 -0.21875 C 3.6875 -0.21875 3.359375 -1.8125 3.359375 -1.984375 C 3.359375 -2.078125 3.46875 -2.46875 3.53125 -2.734375 C 4.078125 -4.953125 4.28125 -5.671875 4.71875 -6.46875 C 5.578125 -7.921875 6.578125 -8.359375 7.1875 -8.359375 C 7.921875 -8.359375 8.5625 -7.796875 8.5625 -6.421875 C 8.5625 -5.3125 7.984375 -3.09375 7.453125 -2.109375 C 6.796875 -0.859375 5.84375 -0.21875 5.078125 -0.21875 Z M 5.078125 -0.21875 "
           style="stroke:none;" />
      </symbol>
      <symbol
         id="glyph1-0-91"
         overflow="visible">
        <path
           id="path5979"
           d=""
           style="stroke:none;" />
      </symbol>
      <symbol
         id="glyph1-1-7"
         overflow="visible">
        <path
           id="path5982"
           d="M 7.046875 -2.546875 L 6.578125 -2.546875 C 6.53125 -2.234375 6.390625 -1.40625 6.203125 -1.265625 C 6.09375 -1.1875 5.015625 -1.1875 4.828125 -1.1875 L 2.265625 -1.1875 C 3.71875 -2.484375 4.21875 -2.875 5.046875 -3.53125 C 6.078125 -4.359375 7.046875 -5.21875 7.046875 -6.546875 C 7.046875 -8.234375 5.5625 -9.265625 3.78125 -9.265625 C 2.046875 -9.265625 0.875 -8.046875 0.875 -6.765625 C 0.875 -6.0625 1.484375 -5.984375 1.625 -5.984375 C 1.953125 -5.984375 2.359375 -6.21875 2.359375 -6.71875 C 2.359375 -6.984375 2.265625 -7.46875 1.53125 -7.46875 C 1.96875 -8.453125 2.921875 -8.765625 3.578125 -8.765625 C 4.96875 -8.765625 5.6875 -7.671875 5.6875 -6.546875 C 5.6875 -5.328125 4.828125 -4.375 4.375 -3.859375 L 1.015625 -0.546875 C 0.875 -0.421875 0.875 -0.390625 0.875 0 L 6.625 0 Z M 7.046875 -2.546875 "
           style="stroke:none;" />
      </symbol>
    </g>
    <g
       id="g6204">
      <symbol
         id="glyph0-0-2"
         overflow="visible">
        <path
           id="path6183"
           d=""
           style="stroke:none;" />
      </symbol>
      <symbol
         id="glyph0-1-36"
         overflow="visible">
        <path
           id="path6186"
           d="M 0.65625 3.453125 C 0.59375 3.6875 0.59375 3.71875 0.59375 3.765625 C 0.59375 4.0625 0.8125 4.296875 1.15625 4.296875 C 1.578125 4.296875 1.8125 3.9375 1.859375 3.890625 C 1.953125 3.703125 2.59375 1.03125 3.125 -1.109375 C 3.53125 -0.3125 4.15625 0.21875 5.09375 0.21875 C 7.4375 0.21875 10 -2.59375 10 -5.5625 C 10 -7.671875 8.6875 -8.8125 7.234375 -8.8125 C 5.296875 -8.8125 3.203125 -6.8125 2.609375 -4.375 Z M 5.078125 -0.21875 C 3.6875 -0.21875 3.359375 -1.8125 3.359375 -1.984375 C 3.359375 -2.078125 3.46875 -2.46875 3.53125 -2.734375 C 4.078125 -4.953125 4.28125 -5.671875 4.71875 -6.46875 C 5.578125 -7.921875 6.578125 -8.359375 7.1875 -8.359375 C 7.921875 -8.359375 8.5625 -7.796875 8.5625 -6.421875 C 8.5625 -5.3125 7.984375 -3.09375 7.453125 -2.109375 C 6.796875 -0.859375 5.84375 -0.21875 5.078125 -0.21875 Z M 5.078125 -0.21875 "
           style="stroke:none;" />
      </symbol>
      <symbol
         id="glyph1-0-5"
         overflow="visible">
        <path
           id="path6189"
           d=""
           style="stroke:none;" />
      </symbol>
      <symbol
         id="glyph1-1-5"
         overflow="visible">
        <path
           id="path6192"
           d="M 7.046875 -2.546875 L 6.578125 -2.546875 C 6.53125 -2.234375 6.390625 -1.40625 6.203125 -1.265625 C 6.09375 -1.1875 5.015625 -1.1875 4.828125 -1.1875 L 2.265625 -1.1875 C 3.71875 -2.484375 4.21875 -2.875 5.046875 -3.53125 C 6.078125 -4.359375 7.046875 -5.21875 7.046875 -6.546875 C 7.046875 -8.234375 5.5625 -9.265625 3.78125 -9.265625 C 2.046875 -9.265625 0.875 -8.046875 0.875 -6.765625 C 0.875 -6.0625 1.484375 -5.984375 1.625 -5.984375 C 1.953125 -5.984375 2.359375 -6.21875 2.359375 -6.71875 C 2.359375 -6.984375 2.265625 -7.46875 1.53125 -7.46875 C 1.96875 -8.453125 2.921875 -8.765625 3.578125 -8.765625 C 4.96875 -8.765625 5.6875 -7.671875 5.6875 -6.546875 C 5.6875 -5.328125 4.828125 -4.375 4.375 -3.859375 L 1.015625 -0.546875 C 0.875 -0.421875 0.875 -0.390625 0.875 0 L 6.625 0 Z M 7.046875 -2.546875 "
           style="stroke:none;" />
      </symbol>
      <symbol
         id="glyph2-0-8"
         overflow="visible">
        <path
           id="path6195"
           d=""
           style="stroke:none;" />
      </symbol>
      <symbol
         id="glyph2-1-1"
         overflow="visible">
        <path
           id="path6198"
           d="M 3.53125 -13.828125 L 0.65625 -13.609375 L 0.65625 -12.984375 C 2.046875 -12.984375 2.21875 -12.84375 2.21875 -11.875 L 2.21875 -1.515625 C 2.21875 -0.625 1.984375 -0.625 0.65625 -0.625 L 0.65625 0 C 1.3125 -0.015625 2.375 -0.0625 2.875 -0.0625 C 3.359375 -0.0625 4.34375 -0.015625 5.078125 0 L 5.078125 -0.625 C 3.75 -0.625 3.53125 -0.625 3.53125 -1.515625 Z M 3.53125 -13.828125 "
           style="stroke:none;" />
      </symbol>
      <symbol
         id="glyph2-2"
         overflow="visible">
        <path
           id="path6201"
           d="M 2.1875 -6.859375 L 2.1875 -1.515625 C 2.1875 -0.625 1.96875 -0.625 0.640625 -0.625 L 0.640625 0 C 1.328125 -0.015625 2.34375 -0.0625 2.890625 -0.0625 C 3.40625 -0.0625 4.4375 -0.015625 5.125 0 L 5.125 -0.625 C 3.78125 -0.625 3.5625 -0.625 3.5625 -1.515625 L 3.5625 -5.171875 C 3.5625 -7.25 4.984375 -8.359375 6.25 -8.359375 C 7.515625 -8.359375 7.734375 -7.296875 7.734375 -6.15625 L 7.734375 -1.515625 C 7.734375 -0.625 7.515625 -0.625 6.171875 -0.625 L 6.171875 0 C 6.875 -0.015625 7.890625 -0.0625 8.421875 -0.0625 C 8.9375 -0.0625 9.984375 -0.015625 10.65625 0 L 10.65625 -0.625 C 9.625 -0.625 9.125 -0.625 9.109375 -1.21875 L 9.109375 -5.015625 C 9.109375 -6.734375 9.109375 -7.34375 8.484375 -8.0625 C 8.203125 -8.40625 7.546875 -8.8125 6.390625 -8.8125 C 4.9375 -8.8125 4 -7.953125 3.453125 -6.71875 L 3.453125 -8.8125 L 0.640625 -8.59375 L 0.640625 -7.96875 C 2.03125 -7.96875 2.1875 -7.828125 2.1875 -6.859375 Z M 2.1875 -6.859375 "
           style="stroke:none;" />
      </symbol>
    </g>
  </defs>
  <sodipodi:namedview
     id="base"
     pagecolor="#ffffff"
     bordercolor="#666666"
     borderopacity="1.0"
     inkscape:pageopacity="0.0"
     inkscape:pageshadow="2"
     inkscape:zoom="1.4"
     inkscape:cx="127.76881"
     inkscape:cy="188.22706"
     inkscape:document-units="mm"
     inkscape:current-layer="layer1"
     showgrid="false"
     inkscape:window-width="1280"
     inkscape:window-height="755"
     inkscape:window-x="0"
     inkscape:window-y="1"
     inkscape:window-maximized="1" />
  <metadata
     id="metadata5">
    <rdf:RDF>
      <cc:Work
         rdf:about="">
        <dc:format>image/svg+xml</dc:format>
        <dc:type
           rdf:resource="http://purl.org/dc/dcmitype/StillImage" />
        <dc:title></dc:title>
      </cc:Work>
    </rdf:RDF>
  </metadata>
  <g
     inkscape:label="Layer 1"
     inkscape:groupmode="layer"
     id="layer1"
     transform="translate(0,-197)">
    <path
       style="fill:none;stroke:#000000;stroke-width:0.2539002px;stroke-linecap:butt;stroke-linejoin:miter;stroke-opacity:1;marker-start:url(#Arrow1Lstart)"
       d="M 20.387402,203.40945 V 291.0447"
       id="path3701"
       inkscape:connector-curvature="0" />
    <path
       style="fill:none;stroke:#000000;stroke-width:0.21180074;stroke-linecap:butt;stroke-linejoin:miter;stroke-miterlimit:4;stroke-dasharray:none;stroke-opacity:1;marker-end:url(#Arrow1Lend)"
       d="M 16.252976,261.63542 H 83.628803"
       id="path3703"
       inkscape:connector-curvature="0" />
    <path
       style="fill:none;stroke:#0000f5;stroke-width:0.21146773;stroke-linecap:butt;stroke-linejoin:miter;stroke-miterlimit:4;stroke-dasharray:1.69174177, 0.84587089;stroke-dashoffset:0;stroke-opacity:1"
       d="m 24.981207,214.99903 c 0.306249,13.90627 0.612503,27.81276 9.340961,34.91556 8.728459,7.1028 25.776347,7.3999 42.875307,7.69789"
       id="path4862"
       inkscape:connector-curvature="0"
       inkscape:path-effect="#path-effect4864"
       inkscape:original-d="m 24.981207,214.99903 c 0.306469,13.90627 0.612722,27.81276 0.918762,41.71947 17.150677,0.29778 34.19855,0.59577 51.297506,0.89398" />
    <path
       style="fill:none;stroke:#ff0000;stroke-width:0.16684715;stroke-linecap:butt;stroke-linejoin:miter;stroke-miterlimit:4;stroke-dasharray:1.33477728, 0.66738865;stroke-dashoffset:0;stroke-opacity:1"
       d="m 23.895062,258.08949 c 0,0 42.410116,-2.36095 54.260002,-19.70489"
       id="path4880"
       inkscape:connector-curvature="0" />
    <g
       id="surface176439"
       transform="matrix(0.28583685,0,0,0.27812978,60.074678,249.02691)">
      <g
         id="g5506"
         style="fill:#0000fd;fill-opacity:1">
        <use
           id="use5504"
           y="18.360001"
           x="-0.27000001"
           xlink:href="#glyph0-1-7"
           width="100%"
           height="100%" />
      </g>
      <g
         id="g5510"
         style="fill:#0000fd;fill-opacity:1">
        <use
           id="use5508"
           y="18.360001"
           x="20.761999"
           xlink:href="#glyph1-1-2"
           width="100%"
           height="100%" />
      </g>
      <g
         id="g5514"
         style="fill:#0000fd;fill-opacity:1">
        <use
           id="use5512"
           y="10.134"
           x="36.514"
           xlink:href="#glyph2-1-9"
           width="100%"
           height="100%" />
      </g>
      <g
         id="g5518"
         style="fill:#0000fd;fill-opacity:1">
        <use
           id="use5516"
           y="18.360001"
           x="45.453999"
           xlink:href="#glyph1-2-3"
           width="100%"
           height="100%" />
      </g>
      <g
         id="g5522"
         style="fill:#0000fd;fill-opacity:1">
        <use
           id="use5520"
           y="18.360001"
           x="55.416599"
           xlink:href="#glyph1-3"
           width="100%"
           height="100%" />
      </g>
      <g
         id="g5526"
         style="fill:#0000fd;fill-opacity:1">
        <use
           id="use5524"
           y="10.134"
           x="65.718002"
           xlink:href="#glyph2-1-9"
           width="100%"
           height="100%" />
      </g>
    </g>
    <path
       style="fill:none;stroke:#000000;stroke-width:0.21146773px;stroke-linecap:butt;stroke-linejoin:miter;stroke-opacity:1"
       d="m 25.899969,203.67517 c 0,0 12.097023,46.18941 26.49095,11.47285 14.393928,-34.71656 15.618941,31.43859 26.950332,30.39562"
       id="path5567"
       inkscape:connector-curvature="0" />
    <g
       id="surface193769"
       transform="matrix(0.28583685,0,0,0.27812978,17.626333,198.66883)">
      <g
         id="g5612"
         style="fill:#000000;fill-opacity:1">
        <use
           id="use5610"
           y="14.36"
           x="-0.384"
           xlink:href="#glyph0-1-39"
           width="100%"
           height="100%" />
      </g>
      <g
         id="g5616"
         style="fill:#000000;fill-opacity:1">
        <use
           id="use5614"
           y="17.35"
           x="11.24"
           xlink:href="#glyph1-1-6"
           width="100%"
           height="100%" />
      </g>
      <g
         id="g5622"
         clip-path="url(#clip1)"
         style="clip-rule:nonzero">
        <g
           id="g5620"
           style="fill:#000000;fill-opacity:1">
          <use
             id="use5618"
             y="17.35"
             x="18.323999"
             xlink:href="#glyph1-2-57"
             width="100%"
             height="100%" />
        </g>
      </g>
    </g>
    <g
       id="surface206401"
       transform="matrix(0.28583685,0,0,0.27812978,78.715027,263.38154)">
      <g
         id="g5683"
         style="fill:#000000;fill-opacity:1">
        <use
           id="use5681"
           y="9.3599997"
           x="0.041999999"
           xlink:href="#glyph0-1-2"
           width="100%"
           height="100%" />
      </g>
    </g>
    <path
       style="fill:none;stroke:#0000fa;stroke-width:0.21180074;stroke-linecap:butt;stroke-linejoin:miter;stroke-miterlimit:4;stroke-dasharray:none;stroke-opacity:1;marker-end:url(#marker4800)"
       d="M 40.753277,222.35413 V 210.73228"
       id="path5700"
       inkscape:connector-curvature="0" />
    <text
       xml:space="preserve"
       style="font-style:normal;font-weight:normal;font-size:4.50683689px;line-height:1.25;font-family:sans-serif;letter-spacing:0px;word-spacing:0px;fill:#0000ff;fill-opacity:1;stroke:none;stroke-width:0.11267094"
       x="31.417072"
       y="212.66704"
       id="text5728"
       transform="scale(1.0220029,0.9784708)"><tspan
         sodipodi:role="line"
         id="tspan5726"
         x="31.417072"
         y="212.66704"
         style="fill:#0000ff;fill-opacity:1;stroke-width:0.11267094">More Q</tspan></text>
    <path
       style="fill:none;stroke:#005f00;stroke-width:0.29499998;stroke-linecap:butt;stroke-linejoin:miter;stroke-opacity:1;stroke-miterlimit:4;stroke-dasharray:2.35999983,1.17999992;stroke-dashoffset:0"
       d="m 23.625872,266.0207 c 0,0 49.105498,8.60207 56.301994,24.54735"
       id="path5952"
       inkscape:connector-curvature="0" />
    <g
       id="surface318706"
       transform="matrix(0.35277777,0,0,0.35277777,79.738817,228.68556)">
      <g
         id="g5991"
         style="fill:#fa0005;fill-opacity:1">
        <use
           id="use5989"
           y="18.360001"
           x="-0.426"
           xlink:href="#glyph0-1-99"
           width="100%"
           height="100%" />
      </g>
      <g
         id="g5995"
         style="fill:#fa0005;fill-opacity:1">
        <use
           id="use5993"
           y="10.134"
           x="9.8760004"
           xlink:href="#glyph1-1-7"
           width="100%"
           height="100%" />
      </g>
    </g>
    <path
       style="fill:none;stroke:#000000;stroke-width:0.27316949;stroke-linecap:butt;stroke-linejoin:miter;stroke-miterlimit:4;stroke-dasharray:1.09267797, 2.18535593;stroke-dashoffset:0;stroke-opacity:1"
       d="m 31.375488,215.16877 c 0,0 10.20169,19.7495 19.269857,0.8061"
       id="path6162"
       inkscape:connector-curvature="0" />
    <g
       id="surface349901"
       transform="matrix(0.35277778,0,0,0.35277778,42.117941,278.57842)">
      <g
         id="g6210"
         style="fill:#3a9e57;fill-opacity:1">
        <use
           id="use6208"
           y="18.360001"
           x="0.33000001"
           xlink:href="#glyph0-1-36"
           width="100%"
           height="100%" />
      </g>
      <g
         id="g6214"
         style="fill:#3a9e57;fill-opacity:1">
        <use
           id="use6212"
           y="10.134"
           x="10.632"
           xlink:href="#glyph1-1-5"
           width="100%"
           height="100%" />
      </g>
      <g
         id="g6220"
         style="fill:#3a9e57;fill-opacity:1">
        <use
           id="use6216"
           y="18.360001"
           x="22.892"
           xlink:href="#glyph2-1-1"
           width="100%"
           height="100%" />
        <use
           id="use6218"
           y="18.360001"
           x="28.427221"
           xlink:href="#glyph2-2"
           width="100%"
           height="100%" />
      </g>
      <g
         id="g6224"
         style="fill:#3a9e57;fill-opacity:1">
        <use
           id="use6222"
           y="18.360001"
           x="42.816002"
           xlink:href="#glyph0-1-36"
           width="100%"
           height="100%" />
      </g>
      <g
         id="g6228"
         style="fill:#3a9e57;fill-opacity:1">
        <use
           id="use6226"
           y="10.134"
           x="53.118"
           xlink:href="#glyph1-1-5"
           width="100%"
           height="100%" />
      </g>
    </g>
  </g>
</svg>
