\relax 
\@writefile{toc}{\contentsline {section}{\numberline {1}The Sine-Gordon Equation as a Model Classical Field Theory}{1}}
\@writefile{toc}{\contentsline {subsection}{\numberline {1.1}Introduction}{1}}
\@writefile{toc}{\contentsline {subsection}{\numberline {1.2}Single particle solutions (one-kink)}{1}}
\@writefile{lof}{\contentsline {figure}{\numberline {1}{\ignorespaces Evolution of $\phi $ along $\theta _1$ for a single-kink solution}}{2}}
\@writefile{toc}{\contentsline {subsection}{\numberline {1.3}N-kink solution}{3}}
\@writefile{lof}{\contentsline {figure}{\numberline {2}{\ignorespaces Kink-antikink collision : phase shifted after collision occured}}{4}}
\@writefile{toc}{\contentsline {subsection}{\numberline {1.4}Bound state solution (bion)}{5}}
\@writefile{toc}{\contentsline {subsection}{\numberline {1.5}Multiple-bion and bion-kink solutions}{6}}
\@writefile{toc}{\contentsline {subsection}{\numberline {1.6}Summary}{7}}
\@writefile{lof}{\contentsline {figure}{\numberline {3}{\ignorespaces Bion-bion collision}}{8}}
\@writefile{toc}{\contentsline {section}{\numberline {2}New Solutions of a Nonlinear Classical Field Theory : a ``Charge Barrier'' Mechanism}{8}}
\@writefile{toc}{\contentsline {subsection}{\numberline {2.1}Introduction}{8}}
\@writefile{toc}{\contentsline {subsection}{\numberline {2.2}The Birula-Mycielski model}{9}}
\@writefile{toc}{\contentsline {subsection}{\numberline {2.3}Classical solution}{10}}
\@writefile{lof}{\contentsline {figure}{\numberline {4}{\ignorespaces Plot of effective potential}}{11}}
\@writefile{toc}{\contentsline {subsection}{\numberline {2.4}Stability of classical solutions}{12}}
\@writefile{lof}{\contentsline {figure}{\numberline {5}{\ignorespaces E-Q plane of various regions}}{13}}
\@writefile{toc}{\contentsline {subsection}{\numberline {2.5}Conclusion}{14}}
