\relax 
\@writefile{toc}{\contentsline {section}{\numberline {1}Mandelstam variable}{1}}
\@writefile{lof}{\contentsline {figure}{\numberline {1}{\ignorespaces Schematics of scattering process\relax }}{1}}
\@writefile{toc}{\contentsline {subsection}{\numberline {1.1}CM-frame}{2}}
\@writefile{lof}{\contentsline {figure}{\numberline {2}{\ignorespaces Demenstration of scattering in CM-frame\relax }}{2}}
\@writefile{toc}{\contentsline {subsection}{\numberline {1.2}Rest frame of particle 2}{4}}
\@writefile{lof}{\contentsline {figure}{\numberline {3}{\ignorespaces Demenstration of scattering in Lab-frame\relax }}{4}}
\@writefile{toc}{\contentsline {section}{\numberline {2}Cross section of Yukawa-like interaction}{7}}
\@writefile{lof}{\contentsline {figure}{\numberline {4}{\ignorespaces Fundamental vertex\relax }}{7}}
\@writefile{lof}{\contentsline {figure}{\numberline {5}{\ignorespaces Feynman diagram\relax }}{9}}
\@writefile{toc}{\contentsline {section}{\numberline {3}Canonical quantization of complex scalar field}{10}}
\@writefile{toc}{\contentsline {subsection}{\numberline {3.1}Commutation relation of Fourier amplitudes}{10}}
\@writefile{toc}{\contentsline {subsection}{\numberline {3.2}Derive canonical quantized Hamiltonian}{11}}
