\relax 
\@writefile{toc}{\contentsline {section}{\numberline {1}Compton Scattering}{1}}
\@writefile{lof}{\contentsline {figure}{\numberline {1}{\ignorespaces Feynman diagram for main process of Compton scattering\relax }}{1}}
