\relax 
\@writefile{toc}{\contentsline {section}{\numberline {1}Neutron Compton Scattering}{1}}
\@writefile{lof}{\contentsline {figure}{\numberline {1}{\ignorespaces Propagator of vecter particles and vertex\relax }}{1}}
\@writefile{lof}{\contentsline {figure}{\numberline {2}{\ignorespaces Two main possible diagram for nucleon compton scattering\relax }}{2}}
