# Fdb version 3
["xdvipdfmx"] 1522697248 "NCS.xdv" "NCS.pdf" "NCS" 1522922166
  "NCS.xdv" 1522697016 31284 4e41c454fb32cb90e9e58642cc8466fc "xelatex"
  (generated)
  "NCS.pdf"
["xelatex"] 1522697016 "NCS.tex" "NCS.xdv" "NCS" 1522922166
  "/usr/local/texlive/2017/texmf-dist/fonts/map/fontname/texfonts.map" 1480098670 3287 e6b82fe08f5336d4d5ebc73fb1152e87 ""
  "/usr/local/texlive/2017/texmf-dist/fonts/tfm/public/amsfonts/cmextra/cmex7.tfm" 1480098698 1004 54797486969f23fa377b128694d548df ""
  "/usr/local/texlive/2017/texmf-dist/fonts/tfm/public/amsfonts/cmextra/cmex8.tfm" 1480098698 988 bdf658c3bfc2d96d3c8b02cfc1c94c20 ""
  "/usr/local/texlive/2017/texmf-dist/fonts/tfm/public/amsfonts/symbols/msam10.tfm" 1480098698 916 f87d7c45f9c908e672703b83b72241a3 ""
  "/usr/local/texlive/2017/texmf-dist/fonts/tfm/public/amsfonts/symbols/msam7.tfm" 1480098698 928 2dc8d444221b7a635bb58038579b861a ""
  "/usr/local/texlive/2017/texmf-dist/fonts/tfm/public/amsfonts/symbols/msbm10.tfm" 1480098698 908 2921f8a10601f252058503cc6570e581 ""
  "/usr/local/texlive/2017/texmf-dist/fonts/tfm/public/amsfonts/symbols/msbm7.tfm" 1480098698 940 228d6584342e91276bf566bcf9716b83 ""
  "/usr/local/texlive/2017/texmf-dist/fonts/tfm/public/cm/cmex10.tfm" 1480098701 992 662f679a0b3d2d53c1b94050fdaa3f50 ""
  "/usr/local/texlive/2017/texmf-dist/fonts/tfm/public/cm/cmmi10.tfm" 1480098701 1528 abec98dbc43e172678c11b3b9031252a ""
  "/usr/local/texlive/2017/texmf-dist/fonts/tfm/public/cm/cmmi12.tfm" 1480098701 1524 4414a8315f39513458b80dfc63bff03a ""
  "/usr/local/texlive/2017/texmf-dist/fonts/tfm/public/cm/cmmi6.tfm" 1480098701 1512 f21f83efb36853c0b70002322c1ab3ad ""
  "/usr/local/texlive/2017/texmf-dist/fonts/tfm/public/cm/cmmi8.tfm" 1480098701 1520 eccf95517727cb11801f4f1aee3a21b4 ""
  "/usr/local/texlive/2017/texmf-dist/fonts/tfm/public/cm/cmr10.tfm" 1480098701 1296 45809c5a464d5f32c8f98ba97c1bb47f ""
  "/usr/local/texlive/2017/texmf-dist/fonts/tfm/public/cm/cmr12.tfm" 1480098701 1288 655e228510b4c2a1abe905c368440826 ""
  "/usr/local/texlive/2017/texmf-dist/fonts/tfm/public/cm/cmr6.tfm" 1480098701 1300 b62933e007d01cfd073f79b963c01526 ""
  "/usr/local/texlive/2017/texmf-dist/fonts/tfm/public/cm/cmr8.tfm" 1480098701 1292 21c1c5bfeaebccffdb478fd231a0997d ""
  "/usr/local/texlive/2017/texmf-dist/fonts/tfm/public/cm/cmsy10.tfm" 1480098701 1124 6c73e740cf17375f03eec0ee63599741 ""
  "/usr/local/texlive/2017/texmf-dist/fonts/tfm/public/cm/cmsy6.tfm" 1480098701 1116 933a60c408fc0a863a92debe84b2d294 ""
  "/usr/local/texlive/2017/texmf-dist/fonts/tfm/public/cm/cmsy8.tfm" 1480098701 1120 8b7d695260f3cff42e636090a8002094 ""
  "/usr/local/texlive/2017/texmf-dist/fonts/tfm/public/latex-fonts/lasy6.tfm" 1480098711 520 4889cce2180234b97cad636b6039c722 ""
  "/usr/local/texlive/2017/texmf-dist/tex/generic/ifxetex/ifxetex.sty" 1480098815 1458 43ab4710dc82f3edeabecd0d099626b2 ""
  "/usr/local/texlive/2017/texmf-dist/tex/generic/oberdiek/etexcmds.sty" 1480098815 7612 729a8cc22a1ee0029997c7f74717ae05 ""
  "/usr/local/texlive/2017/texmf-dist/tex/generic/oberdiek/ifluatex.sty" 1480098815 7324 2310d1247db0114eb4726807c8837a0e ""
  "/usr/local/texlive/2017/texmf-dist/tex/generic/oberdiek/ifpdf.sty" 1490564930 1251 d170e11a3246c3392bc7f59595af42cb ""
  "/usr/local/texlive/2017/texmf-dist/tex/generic/oberdiek/ifvtex.sty" 1480098815 6797 90b7f83b0ad46826bc16058b1e3d48df ""
  "/usr/local/texlive/2017/texmf-dist/tex/generic/oberdiek/infwarerr.sty" 1480098815 8253 473e0e41f9adadb1977e8631b8f72ea6 ""
  "/usr/local/texlive/2017/texmf-dist/tex/generic/oberdiek/kvsetkeys.sty" 1480098815 14040 ac8866aac45982ac84021584b0abb252 ""
  "/usr/local/texlive/2017/texmf-dist/tex/generic/oberdiek/ltxcmds.sty" 1480098815 18425 5b3c0c59d76fac78978b5558e83c1f36 ""
  "/usr/local/texlive/2017/texmf-dist/tex/generic/pgf/basiclayer/pgfcore.code.tex" 1480098816 1006 b103be0bfc8c1682ff1fa9760697a329 ""
  "/usr/local/texlive/2017/texmf-dist/tex/generic/pgf/basiclayer/pgfcorearrows.code.tex" 1480098816 43226 167a99346bfe2676e3efcdde2d81fe45 ""
  "/usr/local/texlive/2017/texmf-dist/tex/generic/pgf/basiclayer/pgfcoreexternal.code.tex" 1480098816 19302 4f089dc590e71f7331e6d5b5ea85273b ""
  "/usr/local/texlive/2017/texmf-dist/tex/generic/pgf/basiclayer/pgfcoregraphicstate.code.tex" 1480098816 6068 edae1e768a7d8d8f0f00e953d2b0153e ""
  "/usr/local/texlive/2017/texmf-dist/tex/generic/pgf/basiclayer/pgfcoreimage.code.tex" 1480098816 7041 a891ad72049e17c4e366c40ca37b0ccb ""
  "/usr/local/texlive/2017/texmf-dist/tex/generic/pgf/basiclayer/pgfcorelayers.code.tex" 1480098816 4625 40c07e9f6f2f7c674704b3f2055560ce ""
  "/usr/local/texlive/2017/texmf-dist/tex/generic/pgf/basiclayer/pgfcoreobjects.code.tex" 1480098816 2631 7eefa6cdbefd8d4e2bad7262cf1094cd ""
  "/usr/local/texlive/2017/texmf-dist/tex/generic/pgf/basiclayer/pgfcorepathconstruct.code.tex" 1480098816 43477 81143b33d9ebafdeead07ede13372427 ""
  "/usr/local/texlive/2017/texmf-dist/tex/generic/pgf/basiclayer/pgfcorepathprocessing.code.tex" 1480098816 17436 8d99d4113be311daf23deff86991ee7d ""
  "/usr/local/texlive/2017/texmf-dist/tex/generic/pgf/basiclayer/pgfcorepathusage.code.tex" 1480098816 20772 c57e34db4aa7b1da013169d04b743eac ""
  "/usr/local/texlive/2017/texmf-dist/tex/generic/pgf/basiclayer/pgfcorepatterns.code.tex" 1480098816 9641 711f0edc22c180a5caf168b6e8970057 ""
  "/usr/local/texlive/2017/texmf-dist/tex/generic/pgf/basiclayer/pgfcorepoints.code.tex" 1480098816 34516 658a71478d21df554bce9d9cd436203a ""
  "/usr/local/texlive/2017/texmf-dist/tex/generic/pgf/basiclayer/pgfcorequick.code.tex" 1480098816 3052 e5672c657232fd63b0a9853b0746297c ""
  "/usr/local/texlive/2017/texmf-dist/tex/generic/pgf/basiclayer/pgfcorescopes.code.tex" 1480098816 16669 4ec6e40088fc6de6334b443fe2dc59f0 ""
  "/usr/local/texlive/2017/texmf-dist/tex/generic/pgf/basiclayer/pgfcoreshade.code.tex" 1480098816 21541 4cd19f8ff7dd74d5aa7d803a6397af84 ""
  "/usr/local/texlive/2017/texmf-dist/tex/generic/pgf/basiclayer/pgfcoretransformations.code.tex" 1480098816 19998 d77fef95c7369827753d17fd11be19c4 ""
  "/usr/local/texlive/2017/texmf-dist/tex/generic/pgf/basiclayer/pgfcoretransparency.code.tex" 1480098816 8943 2e2495b057f8f0035b5568394d489963 ""
  "/usr/local/texlive/2017/texmf-dist/tex/generic/pgf/frontendlayer/tikz/libraries/tikzlibrarytopaths.code.tex" 1480098816 11599 d694704a88e2f9007c996d3a6a4d629c ""
  "/usr/local/texlive/2017/texmf-dist/tex/generic/pgf/frontendlayer/tikz/libraries/tikzlibrarytrees.code.tex" 1480098816 3420 7b6c7f025802bf2a16aaa31df020be3b ""
  "/usr/local/texlive/2017/texmf-dist/tex/generic/pgf/frontendlayer/tikz/tikz.code.tex" 1480098816 176652 1c2926908e2b356d454795c35385d580 ""
  "/usr/local/texlive/2017/texmf-dist/tex/generic/pgf/libraries/pgflibraryplothandlers.code.tex" 1480098816 32969 dbcfd5a7de6a0f7255c333ef60287d59 ""
  "/usr/local/texlive/2017/texmf-dist/tex/generic/pgf/math/pgfmath.code.tex" 1480098816 454 9e9e7c99f4da4f41698be21eaef4938e ""
  "/usr/local/texlive/2017/texmf-dist/tex/generic/pgf/math/pgfmathcalc.code.tex" 1480098816 13416 940ea6971d7a65dc440d3479939c66ae ""
  "/usr/local/texlive/2017/texmf-dist/tex/generic/pgf/math/pgfmathfloat.code.tex" 1480098816 94097 62ac62cda46eb715560dc27f9ed6e8b1 ""
  "/usr/local/texlive/2017/texmf-dist/tex/generic/pgf/math/pgfmathfunctions.base.code.tex" 1480098816 9375 5adc70f722abd29fc250d59e0694b548 ""
  "/usr/local/texlive/2017/texmf-dist/tex/generic/pgf/math/pgfmathfunctions.basic.code.tex" 1480098816 22069 7c21c42b15718ce922f36235be360490 ""
  "/usr/local/texlive/2017/texmf-dist/tex/generic/pgf/math/pgfmathfunctions.code.tex" 1480098816 8210 a7be5b52ef3d2c087b7dc3d52898b67e ""
  "/usr/local/texlive/2017/texmf-dist/tex/generic/pgf/math/pgfmathfunctions.comparison.code.tex" 1480098816 3534 c7f28fbac13616513e513efe93b8569b ""
  "/usr/local/texlive/2017/texmf-dist/tex/generic/pgf/math/pgfmathfunctions.integerarithmetics.code.tex" 1480098816 3167 7c9394e79aac27db96a92f9b2792b858 ""
  "/usr/local/texlive/2017/texmf-dist/tex/generic/pgf/math/pgfmathfunctions.misc.code.tex" 1480098816 9289 261407875b9dbb0194691c3eb893610f ""
  "/usr/local/texlive/2017/texmf-dist/tex/generic/pgf/math/pgfmathfunctions.random.code.tex" 1480098816 7078 946ddf4a7e57219b6afdbad98eb6731b ""
  "/usr/local/texlive/2017/texmf-dist/tex/generic/pgf/math/pgfmathfunctions.round.code.tex" 1480098816 2688 139c6abc86761a6190c2f4bef5d752be ""
  "/usr/local/texlive/2017/texmf-dist/tex/generic/pgf/math/pgfmathfunctions.trigonometric.code.tex" 1480098816 92284 dcf023dbaa84e6c50e11c2f79fe8cfa6 ""
  "/usr/local/texlive/2017/texmf-dist/tex/generic/pgf/math/pgfmathparser.code.tex" 1480098816 35430 046e15fbb65e74d8f0e7945f99741fdb ""
  "/usr/local/texlive/2017/texmf-dist/tex/generic/pgf/math/pgfmathutil.code.tex" 1480098816 7099 f44d505bae6c7c2b933cdd63441db4b9 ""
  "/usr/local/texlive/2017/texmf-dist/tex/generic/pgf/modules/pgfmodulematrix.code.tex" 1480098816 20934 2328bd2e04520e1ab077ac4ee13b8935 ""
  "/usr/local/texlive/2017/texmf-dist/tex/generic/pgf/modules/pgfmoduleplot.code.tex" 1480098816 16203 83cbe1220e389eeee283a6168f9a567b ""
  "/usr/local/texlive/2017/texmf-dist/tex/generic/pgf/modules/pgfmoduleshapes.code.tex" 1480098816 42906 d54376d96df1a2ae2d33fb722236d8e9 ""
  "/usr/local/texlive/2017/texmf-dist/tex/generic/pgf/systemlayer/pgf.cfg" 1480098816 978 15af626ebd3d4d790aac19170dac04f2 ""
  "/usr/local/texlive/2017/texmf-dist/tex/generic/pgf/systemlayer/pgfsys-common-pdf.def" 1480098816 5437 d91f93ed61ecdc57e119849b2d784a0b ""
  "/usr/local/texlive/2017/texmf-dist/tex/generic/pgf/systemlayer/pgfsys-dvipdfmx.def" 1480098816 18422 182ea340fe384a783e6d99184fca680d ""
  "/usr/local/texlive/2017/texmf-dist/tex/generic/pgf/systemlayer/pgfsys-xetex.def" 1480098816 2854 4e3bebfa6c55ef2b7b032d020293758e ""
  "/usr/local/texlive/2017/texmf-dist/tex/generic/pgf/systemlayer/pgfsys.code.tex" 1480098816 35113 2ccc50c1c9573e4bac9230d030f9c67c ""
  "/usr/local/texlive/2017/texmf-dist/tex/generic/pgf/systemlayer/pgfsysprotocol.code.tex" 1480098816 1983 b5994ebbcee17f1ba3d29bb1bd696fcf ""
  "/usr/local/texlive/2017/texmf-dist/tex/generic/pgf/systemlayer/pgfsyssoftpath.code.tex" 1480098816 7881 d459d6057e13d10ce7a227ae44b7295e ""
  "/usr/local/texlive/2017/texmf-dist/tex/generic/pgf/utilities/pgffor.code.tex" 1480098816 22211 d696ef78c12269178882d218b2cf191d ""
  "/usr/local/texlive/2017/texmf-dist/tex/generic/pgf/utilities/pgfkeys.code.tex" 1480098816 36194 e194ef4e0b396b531a3891feb4b1cc22 ""
  "/usr/local/texlive/2017/texmf-dist/tex/generic/pgf/utilities/pgfkeysfiltered.code.tex" 1480098816 33377 af391d6ad1bfcbe2278e191f48e43ba8 ""
  "/usr/local/texlive/2017/texmf-dist/tex/generic/pgf/utilities/pgfrcs.code.tex" 1480098816 2536 a3b0529d815a2759ba157b56610a6377 ""
  "/usr/local/texlive/2017/texmf-dist/tex/generic/pgf/utilities/pgfutil-common-lists.tex" 1480098816 6833 114eda2cf1d348e0e7e477a1a4dc1941 ""
  "/usr/local/texlive/2017/texmf-dist/tex/generic/pgf/utilities/pgfutil-common.tex" 1480098816 16501 ab0135765e27b6b8dae047831fe84818 ""
  "/usr/local/texlive/2017/texmf-dist/tex/generic/pgf/utilities/pgfutil-latex.def" 1480098816 5544 294baac9629ba59f675b1f2027ad7136 ""
  "/usr/local/texlive/2017/texmf-dist/tex/generic/ulem/ulem.sty" 1480098819 23756 854c01b779030ff5b2aad88ba7a119f2 ""
  "/usr/local/texlive/2017/texmf-dist/tex/latex/amsfonts/amsfonts.sty" 1480098820 5949 3f3fd50a8cc94c3d4cbf4fc66cd3df1c ""
  "/usr/local/texlive/2017/texmf-dist/tex/latex/amsfonts/amssymb.sty" 1480098820 13829 94730e64147574077f8ecfea9bb69af4 ""
  "/usr/local/texlive/2017/texmf-dist/tex/latex/amsfonts/umsa.fd" 1480098820 961 6518c6525a34feb5e8250ffa91731cff ""
  "/usr/local/texlive/2017/texmf-dist/tex/latex/amsfonts/umsb.fd" 1480098820 961 d02606146ba5601b5645f987c92e6193 ""
  "/usr/local/texlive/2017/texmf-dist/tex/latex/amsmath/amsbsy.sty" 1480098820 2210 5c54ab129b848a5071554186d0168766 ""
  "/usr/local/texlive/2017/texmf-dist/tex/latex/amsmath/amsgen.sty" 1480098820 4160 c115536cf8d4ff25aa8c1c9bc4ecb79a ""
  "/usr/local/texlive/2017/texmf-dist/tex/latex/amsmath/amsmath.sty" 1485129665 84329 81aa65c5042562f79cb421feff9b8bdc ""
  "/usr/local/texlive/2017/texmf-dist/tex/latex/amsmath/amsopn.sty" 1480098820 4115 318a66090112f3aa3f415aeb6fe8540f ""
  "/usr/local/texlive/2017/texmf-dist/tex/latex/amsmath/amstext.sty" 1480098820 2431 fe3078ec12fc30287f568596f8e0b948 ""
  "/usr/local/texlive/2017/texmf-dist/tex/latex/base/article.cls" 1480098821 19821 310da678527a7dfe2a02c88af38079b7 ""
  "/usr/local/texlive/2017/texmf-dist/tex/latex/base/ifthen.sty" 1480098821 5159 a08c9bbd48fc492f15b22e458bef961f ""
  "/usr/local/texlive/2017/texmf-dist/tex/latex/base/size12.clo" 1480098821 8303 1d67e16498f00f63da792fab169302fc ""
  "/usr/local/texlive/2017/texmf-dist/tex/latex/caption/caption.sty" 1480098823 66233 8b81cfab95a1f8fc2f0f6c89415b087a ""
  "/usr/local/texlive/2017/texmf-dist/tex/latex/caption/caption3.sty" 1480098823 64866 1ea74c5f2d1685881497f021b8f186b2 ""
  "/usr/local/texlive/2017/texmf-dist/tex/latex/caption/subcaption.sty" 1480098823 5038 413302044f9700cf65465d590c2f4ad1 ""
  "/usr/local/texlive/2017/texmf-dist/tex/latex/dirtytalk/dirtytalk.sty" 1480098826 1915 75d8498f106e3f673b6267693e944869 ""
  "/usr/local/texlive/2017/texmf-dist/tex/latex/enumitem/enumitem.sty" 1480098827 42666 6fa770e3485520a6a5f2ea7d259c8f8d ""
  "/usr/local/texlive/2017/texmf-dist/tex/latex/fancyhdr/fancyhdr.sty" 1480098827 22494 ab2f238426db63334832f85a72ef1f3b ""
  "/usr/local/texlive/2017/texmf-dist/tex/latex/feynmf/feynmf.sty" 1480098828 15107 9144bb560822fc6f59a597e32bd6a72c ""
  "/usr/local/texlive/2017/texmf-dist/tex/latex/geometry/geometry.sty" 1480098829 40502 e003406220954b0716679d7928aedd8a ""
  "/usr/local/texlive/2017/texmf-dist/tex/latex/graphics-cfg/color.cfg" 1480098830 1213 620bba36b25224fa9b7e1ccb4ecb76fd ""
  "/usr/local/texlive/2017/texmf-dist/tex/latex/graphics-cfg/graphics.cfg" 1480098830 1224 978390e9c2234eab29404bc21b268d1e ""
  "/usr/local/texlive/2017/texmf-dist/tex/latex/graphics-def/xetex.def" 1485129666 21966 ed359f6c6c81a1c024b31a1bd86d1b4a ""
  "/usr/local/texlive/2017/texmf-dist/tex/latex/graphics/graphics.sty" 1492297155 14603 b288c52bd5d46d593af31dbc7e548236 ""
  "/usr/local/texlive/2017/texmf-dist/tex/latex/graphics/graphicx.sty" 1480098830 8125 557ab9f1bfa80d369fb45a914aa8a3b4 ""
  "/usr/local/texlive/2017/texmf-dist/tex/latex/graphics/keyval.sty" 1480098830 2594 d18d5e19aa8239cf867fa670c556d2e9 ""
  "/usr/local/texlive/2017/texmf-dist/tex/latex/graphics/trig.sty" 1480098830 3980 0a268fbfda01e381fa95821ab13b6aee ""
  "/usr/local/texlive/2017/texmf-dist/tex/latex/mathtools/mathtools.sty" 1480098833 52544 230bee00b51474565531682f2222a2d9 ""
  "/usr/local/texlive/2017/texmf-dist/tex/latex/mathtools/mhsetup.sty" 1480098833 5175 696879833890ce832e12746d98d0e932 ""
  "/usr/local/texlive/2017/texmf-dist/tex/latex/ms/everyshi.sty" 1480098835 3878 6aa7c08ff2621006e0603349e40a30a8 ""
  "/usr/local/texlive/2017/texmf-dist/tex/latex/oberdiek/kvoptions.sty" 1480098836 22417 1d9df1eb66848aa31b18a593099cf45c ""
  "/usr/local/texlive/2017/texmf-dist/tex/latex/pgf/basiclayer/pgf.sty" 1480098837 1197 8a80cdde14696a9198f1793a55dcf332 ""
  "/usr/local/texlive/2017/texmf-dist/tex/latex/pgf/basiclayer/pgfcore.sty" 1480098837 410 5bf12ea7330e5f12c445332a4fe9a263 ""
  "/usr/local/texlive/2017/texmf-dist/tex/latex/pgf/compatibility/pgfcomp-version-0-65.sty" 1480098837 21115 facf03b7dbe5ea2f5f1dce1ac84b5d05 ""
  "/usr/local/texlive/2017/texmf-dist/tex/latex/pgf/compatibility/pgfcomp-version-1-18.sty" 1480098837 1091 d9163d29def82ee90370c8a63667742c ""
  "/usr/local/texlive/2017/texmf-dist/tex/latex/pgf/frontendlayer/tikz.sty" 1480098837 339 592cf35cba3d400082b8a9a5d0199d70 ""
  "/usr/local/texlive/2017/texmf-dist/tex/latex/pgf/math/pgfmath.sty" 1480098837 306 0796eafca5e159e6ec2167a6d22d81b1 ""
  "/usr/local/texlive/2017/texmf-dist/tex/latex/pgf/systemlayer/pgfsys.sty" 1480098837 443 0b2e781830192df35c0fd357cf13e26e ""
  "/usr/local/texlive/2017/texmf-dist/tex/latex/pgf/utilities/pgffor.sty" 1480098837 348 8927fde343487e003b01a4c2ca34073b ""
  "/usr/local/texlive/2017/texmf-dist/tex/latex/pgf/utilities/pgfkeys.sty" 1480098837 274 4cad6e665cc93ac2ac979039a94fa1e1 ""
  "/usr/local/texlive/2017/texmf-dist/tex/latex/pgf/utilities/pgfrcs.sty" 1480098837 325 2bcd023400636339210573e2b3ee298b ""
  "/usr/local/texlive/2017/texmf-dist/tex/latex/tools/calc.sty" 1480098841 10214 d03d065f799d54f6b7e9b175f8d84279 ""
  "/usr/local/texlive/2017/texmf-dist/tex/latex/xcolor/xcolor.sty" 1480098843 55589 34128738f682d033422ca125f82e5d62 ""
  "/usr/local/texlive/2017/texmf-dist/web2c/texmf.cnf" 1494087824 32646 eadc4ca26cdbe7105ac7c593aa8c4f72 ""
  "/usr/local/texlive/2017/texmf-var/web2c/xetex/xelatex.fmt" 1514341957 3678543 2f0e0f70bb4d5d6f4217f908cfac8678 ""
  "/usr/local/texlive/2017/texmf.cnf" 1495593465 577 2b71d4d888f9e5560b2e99985915a9fa ""
  "NCS.aux" 1522697016 361 e72bc7d9cca4627a9afac6ff52ee4371 ""
  "NCS.tex" 1522697016 7344 56431ba6aca88999ef4d2c2641054ae3 ""
  "img/d1.pdf" 1522670666 9562 164b8a4936b51b535bc7002c7de22adc ""
  "img/d2.pdf" 1522670721 9736 03436de3abd2b680da34ea328f8c25e2 ""
  "img/f1.pdf" 1522639580 1571 98237c1f702dc754b85feec2406ba311 ""
  "img/f2.pdf" 1522639628 1421 9bdf2b15f011f95e04893daf2285cf7d ""
  "img/f3.pdf" 1522640982 1199 ac3ad39608b8b00277108f9b920bcb41 ""
  (generated)
  "NCS.xdv"
  "NCS.log"
  "NCS.aux"
