\relax 
\providecommand\hyper@newdestlabel[2]{}
\providecommand\HyperFirstAtBeginDocument{\AtBeginDocument}
\HyperFirstAtBeginDocument{\ifx\hyper@anchor\@undefined
\global\let\oldcontentsline\contentsline
\gdef\contentsline#1#2#3#4{\oldcontentsline{#1}{#2}{#3}}
\global\let\oldnewlabel\newlabel
\gdef\newlabel#1#2{\newlabelxx{#1}#2}
\gdef\newlabelxx#1#2#3#4#5#6{\oldnewlabel{#1}{{#2}{#3}}}
\AtEndDocument{\ifx\hyper@anchor\@undefined
\let\contentsline\oldcontentsline
\let\newlabel\oldnewlabel
\fi}
\fi}
\global\let\hyper@last\relax 
\gdef\HyperFirstAtBeginDocument#1{#1}
\providecommand*\HyPL@Entry[1]{}
\HyPL@Entry{0<</P(1)>>}
\@writefile{nav}{\headcommand {\slideentry {0}{0}{1}{1/1}{}{0}}}
\@writefile{nav}{\headcommand {\beamer@framepages {1}{1}}}
\HyPL@Entry{1<</P(2)>>}
\@writefile{nav}{\headcommand {\slideentry {0}{0}{2}{2/2}{}{0}}}
\@writefile{nav}{\headcommand {\beamer@framepages {2}{2}}}
\HyPL@Entry{2<</P(3)>>}
\@writefile{toc}{\beamer@sectionintoc {1}{Introduction}{3}{0}{1}}
\@writefile{nav}{\headcommand {\sectionentry {1}{Introduction}{3}{Introduction}{0}}}
\@writefile{nav}{\headcommand {\beamer@sectionpages {1}{2}}}
\@writefile{nav}{\headcommand {\beamer@subsectionpages {1}{2}}}
\@writefile{toc}{\beamer@subsectionintoc {1}{1}{Protostar}{3}{0}{1}}
\@writefile{nav}{\headcommand {\beamer@subsectionentry {0}{1}{1}{3}{Protostar}}\headcommand {\beamer@subsectionpages {3}{2}}}
\@writefile{nav}{\headcommand {\slideentry {1}{1}{1}{3/3}{Protostar}{0}}}
\@writefile{nav}{\headcommand {\beamer@framepages {3}{3}}}
\HyPL@Entry{3<</P(4)>>}
\@writefile{toc}{\beamer@subsectionintoc {1}{2}{Telescopes}{4}{0}{1}}
\@writefile{nav}{\headcommand {\beamer@subsectionentry {0}{1}{2}{4}{Telescopes}}\headcommand {\beamer@subsectionpages {3}{3}}}
\@writefile{nav}{\headcommand {\slideentry {1}{2}{1}{4/4}{Telescopes}{0}}}
\@writefile{nav}{\headcommand {\beamer@framepages {4}{4}}}
\HyPL@Entry{4<</P(5)>>}
\@writefile{toc}{\beamer@sectionintoc {2}{Observation}{5}{0}{2}}
\@writefile{nav}{\headcommand {\sectionentry {2}{Observation}{5}{Observation}{0}}}
\@writefile{nav}{\headcommand {\beamer@sectionpages {3}{4}}}
\@writefile{nav}{\headcommand {\beamer@subsectionpages {4}{4}}}
\@writefile{toc}{\beamer@subsectionintoc {2}{1}{Geometry of protostar}{5}{0}{2}}
\@writefile{nav}{\headcommand {\beamer@subsectionentry {0}{2}{1}{5}{Geometry of protostar}}\headcommand {\beamer@subsectionpages {5}{4}}}
\@writefile{nav}{\headcommand {\slideentry {2}{1}{1}{5/5}{Geometry of protostar}{0}}}
\@writefile{nav}{\headcommand {\beamer@framepages {5}{5}}}
\HyPL@Entry{5<</P(6)>>}
\@writefile{toc}{\beamer@subsectionintoc {2}{2}{Toy model}{6}{0}{2}}
\@writefile{nav}{\headcommand {\beamer@subsectionentry {0}{2}{2}{6}{Toy model}}\headcommand {\beamer@subsectionpages {5}{5}}}
\@writefile{nav}{\headcommand {\slideentry {2}{2}{1}{6/6}{Toy model}{0}}}
\@writefile{nav}{\headcommand {\beamer@framepages {6}{6}}}
\HyPL@Entry{6<</P(7)>>}
\@writefile{toc}{\beamer@subsectionintoc {2}{3}{Cyclic-\ce {C3H2} envelope}{7}{0}{2}}
\@writefile{nav}{\headcommand {\beamer@subsectionentry {0}{2}{3}{7}{Cyclic-\ce {C3H2} envelope}}\headcommand {\beamer@subsectionpages {6}{6}}}
\@writefile{nav}{\headcommand {\slideentry {2}{3}{1}{7/7}{Cyclic-\ce {C3H2} envelope}{0}}}
\@writefile{nav}{\headcommand {\beamer@framepages {7}{7}}}
\HyPL@Entry{7<</P(8)>>}
\@writefile{nav}{\headcommand {\slideentry {2}{3}{2}{8/8}{Cyclic-\ce {C3H2} envelope}{0}}}
\@writefile{nav}{\headcommand {\beamer@framepages {8}{8}}}
\HyPL@Entry{8<</P(9)>>}
\@writefile{nav}{\headcommand {\slideentry {2}{3}{3}{9/9}{Cyclic-\ce {C3H2} envelope}{0}}}
\@writefile{nav}{\headcommand {\beamer@framepages {9}{9}}}
\HyPL@Entry{9<</P(10)>>}
\@writefile{toc}{\beamer@subsectionintoc {2}{4}{\ce {SO}}{10}{0}{2}}
\@writefile{nav}{\headcommand {\beamer@subsectionentry {0}{2}{4}{10}{\ce {SO}}}\headcommand {\beamer@subsectionpages {7}{9}}}
\@writefile{nav}{\headcommand {\slideentry {2}{4}{1}{10/10}{\ce {SO}}{0}}}
\@writefile{nav}{\headcommand {\beamer@framepages {10}{10}}}
\HyPL@Entry{10<</P(11)>>}
\@writefile{toc}{\beamer@sectionintoc {3}{Interpretation}{11}{0}{3}}
\@writefile{nav}{\headcommand {\sectionentry {3}{Interpretation}{11}{Interpretation}{0}}}
\@writefile{nav}{\headcommand {\beamer@sectionpages {5}{10}}}
\@writefile{nav}{\headcommand {\beamer@subsectionpages {10}{10}}}
\@writefile{nav}{\headcommand {\slideentry {3}{0}{1}{11/11}{}{0}}}
\@writefile{nav}{\headcommand {\beamer@framepages {11}{11}}}
\HyPL@Entry{11<</P(12)>>}
\@writefile{nav}{\headcommand {\slideentry {3}{0}{2}{12/12}{}{0}}}
\@writefile{nav}{\headcommand {\beamer@framepages {12}{12}}}
\HyPL@Entry{12<</P(13)>>}
\@writefile{toc}{\beamer@sectionintoc {4}{Summary}{13}{0}{4}}
\@writefile{nav}{\headcommand {\sectionentry {4}{Summary}{13}{Summary}{0}}}
\@writefile{nav}{\headcommand {\beamer@sectionpages {11}{12}}}
\@writefile{nav}{\headcommand {\beamer@subsectionpages {11}{12}}}
\@writefile{nav}{\headcommand {\slideentry {4}{0}{1}{13/13}{}{0}}}
\@writefile{nav}{\headcommand {\beamer@framepages {13}{13}}}
\HyPL@Entry{13<</P(14)>>}
\@writefile{toc}{\beamer@sectionintoc {5}{Reference}{14}{0}{5}}
\@writefile{nav}{\headcommand {\sectionentry {5}{Reference}{14}{Reference}{0}}}
\@writefile{nav}{\headcommand {\beamer@sectionpages {13}{13}}}
\@writefile{nav}{\headcommand {\beamer@subsectionpages {13}{13}}}
\@writefile{nav}{\headcommand {\slideentry {5}{0}{1}{14/14}{}{0}}}
\@writefile{nav}{\headcommand {\beamer@framepages {14}{14}}}
\HyPL@Entry{14<</P(15)>>}
\@writefile{nav}{\headcommand {\slideentry {6}{0}{1}{15/15}{}{0}}}
\@writefile{nav}{\headcommand {\beamer@framepages {15}{15}}}
\@writefile{nav}{\headcommand {\beamer@partpages {1}{15}}}
\@writefile{nav}{\headcommand {\beamer@subsectionpages {15}{15}}}
\@writefile{nav}{\headcommand {\beamer@sectionpages {15}{15}}}
\@writefile{nav}{\headcommand {\beamer@documentpages {15}}}
\@writefile{nav}{\headcommand {\def \inserttotalframenumber {15}}}
